/* XPM */
static char * maximize_active_xpm[] = {
"12 21 10 1",
" 	c None",
".	c #000000",
"+	c #0D3306",
"@	c #071C03",
"#	c #292829",
"$	c #082003",
"%	c #082104",
"&	c #092304",
"*	c #092504",
"=	c #041102",
"            ",
"            ",
"            ",
"            ",
"            ",
"            ",
" .......... ",
".+++++++++@.",
".+@@@@@@@@@.",
".+@######@@.",
".+@######@@.",
".+$#$$$$#$@.",
".+%#%%%%#%@.",
".+&#&&&&#&@.",
".+&######&@.",
".+********@.",
".=========@.",
" .......... ",
"            ",
"            ",
"            "};
