/* XPM */
static char * maximize_inactive_xpm[] = {
"12 21 13 1",
" 	c None",
".	c #010101",
"+	c #0F0F0F",
"@	c #101010",
"#	c #111111",
"$	c #0B0B0B",
"%	c #121212",
"&	c #131313",
"*	c #141414",
"=	c #151515",
"-	c #161616",
";	c #171717",
">	c #181818",
"            ",
"            ",
"            ",
"            ",
"            ",
"            ",
" .......... ",
".++++++++++.",
".@@@@@@@@@@.",
".##$$$$$$##.",
".%%$$$$$$%%.",
".&&$&&&&$&&.",
".**$****$**.",
".==$====$==.",
".--$$$$$$--.",
".;;;;;;;;;;.",
".>>>>>>>>>>.",
" .......... ",
"            ",
"            ",
"            "};
