/* XPM */
static char * top_right_active_xpm[] = {
"21 21 11 1",
" 	c None",
".	c #184D63",
"+	c #232323",
"@	c #1D1D1D",
"#	c #212121",
"$	c #1A1A1A",
"%	c #151515",
"&	c #1F1F1F",
"*	c #1E1E1E",
"=	c #1C1C1C",
"-	c #1B1B1B",
"                     ",
"                     ",
"                     ",
"...................  ",
"++++++++++++++++++@. ",
"###################$.",
".#.#.#.#.#.#.#.#.##%.",
"&+&+&+&+&+&+&+&+&+&%.",
".&.&.&.&.&.&.&.&.&&%.",
"&+&+&+&+&+&+&+&+&+&%.",
".*.*.*.*.*.*.*.*.**%.",
"*+*+*+*+*+*+*+*+*+*%.",
".@.@.@.@.@.@.@.@.@@%.",
"@+@+@+@+@+@+@+@+@+@%.",
".=.=.=.=.=.=.=.=.==%.",
"=+=+=+=+=+=+=+=+=+=%.",
".-.-.-.-.-.-.-.-.--%.",
"-+-+-+-+-+-+-+-+-+-%.",
"$$$$$$$$$$$$$$$$$$$%.",
"%%%%%%%%%%%%%%%%%%$%.",
".................%@%."};
