/* XPM */
static char * menu_prelight_xpm[] = {
"30 25 2 1",
" 	c #3B3B3B",
".	c #FFFFFF",
"                              ",
"                              ",
"                              ",
"                              ",
"                              ",
"                              ",
"         ...........          ",
"         ...........          ",
"                              ",
"         ...........          ",
"         ...........          ",
"                              ",
"         ...........          ",
"         ...........          ",
"                              ",
"                              ",
"                              ",
"                              ",
"                              ",
"                              ",
"                              ",
"                              ",
"                              ",
"                              ",
"                              "};
