/* XPM */
static char * menu_pressed_xpm[] = {
"30 25 2 1",
" 	c #141414",
".	c #FFFFFF",
"                              ",
"                              ",
"                              ",
"                              ",
"                              ",
"                              ",
"         ...........          ",
"         ...........          ",
"                              ",
"         ...........          ",
"         ...........          ",
"                              ",
"         ...........          ",
"         ...........          ",
"                              ",
"                              ",
"                              ",
"                              ",
"                              ",
"                              ",
"                              ",
"                              ",
"                              ",
"                              ",
"                              "};
