/* XPM */
static char * title_2_active_xpm[] = {
"9 17 4 1",
" 	c None",
".	c #ED8224",
"+	c #525252",
"@	c #291D00",
"         ",
"         ",
".........",
"++++@@@@@",
"++@@@@@@@",
"+@@@@@@@@",
"+@@@@@@@@",
"+@@@@@@@@",
"+@@@@@@@@",
"+@@@@@@@@",
"+@@@@@@@@",
"+@@@@@@@@",
"+@@@@@@@@",
"+@@@@@@@@",
"++@@@@@@@",
"++++@@@@@",
"+++++++++"};
