/* XPM */
static char * top_left_inactive_xpm[] = {
"43 59 3 1",
" 	c None",
".	c #ED8224",
"+	c #525252",
"                                           ",
"                                           ",
"                      .....................",
"                     ......++++......++++++",
"                    ......++++......+++++++",
"                   ......++++......++++++++",
"                  ......++++......+++++++++",
"                 ......++++......++++++++++",
"                ......++++......+++++++++++",
"               ......++++......++++++++++++",
"              ......++++......+++++++++++++",
"             ......++++......++++++++++++++",
"            .......+++.......++++++++++++++",
"           ++++++++++++++++++++++++++++++++",
"          +++++++++++++++++++++++++++++++++",
"         ++++++++++++++++++++++++++++++++++",
"        +++++++++++++++++++++++++++++++++++",
"       ++++++++++++++++++++++++++++++++++++",
"       ++++++++++++++++++++++++++++++++++++",
"       ++++++++++++++++++++++++++++++++++++",
"       ++++++++++++++++++++++++++++++++++++",
"                                           ",
"                                           ",
"                                           ",
"                                           ",
"                                           ",
"                                           ",
"                                           ",
"                                           ",
"                                           ",
"                                           ",
"                                           ",
"                                           ",
"                                           ",
"                                           ",
"                                           ",
"                                           ",
"                                           ",
"                                           ",
"                                           ",
"                                           ",
"                                           ",
"                                           ",
"                                           ",
"                                           ",
"                                           ",
"                                           ",
"                                           ",
"                                           ",
"                                           ",
"                                           ",
"                                           ",
"                                           ",
"                                           ",
"                                           ",
"                                           ",
"                                           ",
"                                           ",
"                                           "};
