/* XPM */
static char * close_inactive_xpm[] = {
"28 20 5 1",
" 	c None",
".	c #87A68D",
"+	c #292829",
"@	c #5A7B61",
"#	c #292729",
"............................",
"............................",
"++++++++++++++++++++++++++++",
"++++++++++++++++++++++++++++",
"++++++++++++++++++++++++++++",
"++++++++++++++++++++++++++++",
"+++++@@@@@+@+++@+@@@++++++++",
"+++++@+++++@+++@+@++@+++++++",
"+++++@+++++@@++@+@+++@++++++",
"+++++@@@@++@+@+@+@+++@++++++",
"+++++@+++++@++@@+@+++@++++++",
"+++++@+++++@+++@+@+++@++++++",
"+++++@+++++@+++@+@++@+++++++",
"+++++@@@@@+@+++@+@@@++++++++",
"++++++++++++++++++++++++++++",
"++++++++++++++++++++++++++++",
"#+++++++++#+++++++++++++++++",
"++++++++++++++++++++++++++++",
"++++++++++++++++++++++++++++",
"++++++++++++++++++++++++++++"};
