/* XPM */
static char * maximize_active_xpm[] = {
"28 20 4 1",
" 	c None",
".	c #5AF3F7",
"+	c #292829",
"@	c #292729",
"............................",
"............................",
"++++++++++++++++++++++++++++",
"++++++++++++++++++++++++++++",
"++++++++++++++++++++++++++++",
"++++++++++++++++++++++++++++",
"+++++.+++.++...++.+++.++++++",
"+++++..+..+.+++.+.+++.++++++",
"+++@+.+.+.+.+++.++.+.+++++++",
"++@++.+.+.+.+++.+++.++++++++",
"+++++.+++.+.....+++.++++++++",
"+++++.+++.+.+++.++.+.+++++++",
"+++++.+++.+.+++.+.+++.++++++",
"+++++.+++.+.+++.+.+++.++++++",
"++++++++++++++++++++++++++++",
"++++++++++++++++++++++++++++",
"++++++++++++++++++++++++++++",
"++++++++++++++++++++++++++++",
"++++++++++++++++++++++++++++",
"++++++++++++++++++++++++++++"};
