/* XPM */
static char * menu_pressed_xpm[] = {
"28 20 5 1",
" 	c None",
".	c #5AF3F7",
"+	c #292829",
"@	c #88F400",
"#	c #292729",
"............................",
"............................",
"++++++++++++++++++++++++++++",
"++++++++++++++++++++++++++++",
"++++++++++++++++++++++++++++",
"++++++++++++++++++++++++++++",
"+++++@+++@+@+++@+@+++@++++++",
"+++++@@+@@+@+++@+@+++@++++++",
"+++++@+@+@+@@++@+@+++@++++++",
"+++++@+@+@+@+@+@+@+++@++++++",
"+++++@+++@+@++@@+@+++@++++++",
"++#++@+++@+@+++@+@+++@++++++",
"+++++@+++@+@+++@+@+++@++++++",
"+++++@+++@+@+++@++@@@+++++++",
"++++++++++++++++++++++++++++",
"+++++++++++++++++++#++++++++",
"++++++++++++++++++++++++++++",
"++++++++++++++++++++++++++++",
"++++++++++++++++++++++++++++",
"++++++++++++++++++++++++++++"};
