/* XPM */
static char * close_active_xpm[] = {
"46 31 166 2",
"  	c None",
". 	c #000000",
"+ 	c #3D4748",
"@ 	c #353C3D",
"# 	c #282E2F",
"$ 	c #4C4C4C",
"% 	c #444444",
"& 	c #363636",
"* 	c #353535",
"= 	c #3A3A3A",
"- 	c #484848",
"; 	c #434343",
"> 	c #323232",
", 	c #282F30",
"' 	c #283132",
") 	c #283133",
"! 	c #283233",
"~ 	c #3C3C3C",
"{ 	c #505050",
"] 	c #393939",
"^ 	c #283334",
"/ 	c #283637",
"( 	c #283839",
"_ 	c #343434",
": 	c #4F4F4F",
"< 	c #283536",
"[ 	c #29393A",
"} 	c #293D3F",
"| 	c #294041",
"1 	c #294143",
"2 	c #3B3B3B",
"3 	c #3E3E3E",
"4 	c #2A4648",
"5 	c #2A484A",
"6 	c #2A4C4D",
"7 	c #494949",
"8 	c #303030",
"9 	c #00FCFF",
"0 	c #2B5658",
"a 	c #2C5B5D",
"b 	c #2C5F61",
"c 	c #383838",
"d 	c #373737",
"e 	c #151819",
"f 	c #151D1E",
"g 	c #162122",
"h 	c #182C2D",
"i 	c #1A3537",
"j 	c #1C4447",
"k 	c #1D4A4C",
"l 	c #1E4E50",
"m 	c #010405",
"n 	c #020A0B",
"o 	c #041314",
"p 	c #071E1F",
"q 	c #0B3133",
"r 	c #0B0B0B",
"s 	c #0F0F0F",
"t 	c #000304",
"u 	c #010607",
"v 	c #030D0E",
"w 	c #072122",
"x 	c #082426",
"y 	c #080808",
"z 	c #000102",
"A 	c #020809",
"B 	c #051617",
"C 	c #051819",
"D 	c #040404",
"E 	c #000001",
"F 	c #030C0D",
"G 	c #010101",
"H 	c #020202",
"I 	c #010506",
"J 	c #050606",
"K 	c #030404",
"L 	c #000101",
"M 	c #000A0B",
"N 	c #010202",
"O 	c #020303",
"P 	c #001112",
"Q 	c #001011",
"R 	c #000E0F",
"S 	c #010D0E",
"T 	c #010C0D",
"U 	c #010C0C",
"V 	c #010B0B",
"W 	c #01090A",
"X 	c #010707",
"Y 	c #010606",
"Z 	c #010505",
"` 	c #010404",
" .	c #010303",
"..	c #001D1F",
"+.	c #001C1E",
"@.	c #001B1D",
"#.	c #001A1C",
"$.	c #00191B",
"%.	c #00181A",
"&.	c #001416",
"*.	c #001113",
"=.	c #000B0C",
"-.	c #000809",
";.	c #000707",
">.	c #000505",
",.	c #002C30",
"'.	c #002A2E",
").	c #00292D",
"!.	c #00292C",
"~.	c #00282B",
"{.	c #00272A",
"].	c #002427",
"^.	c #001F22",
"/.	c #001719",
"(.	c #001315",
"_.	c #000D0E",
":.	c #000909",
"<.	c #003D42",
"[.	c #003B40",
"}.	c #003A3F",
"|.	c #00393E",
"1.	c #00383D",
"2.	c #00373C",
"3.	c #00363A",
"4.	c #003236",
"5.	c #002D31",
"6.	c #002225",
"7.	c #001D20",
"8.	c #001415",
"9.	c #004D53",
"0.	c #004B51",
"a.	c #004A50",
"b.	c #00494F",
"c.	c #00484E",
"d.	c #00474C",
"e.	c #004449",
"f.	c #003F44",
"g.	c #003438",
"h.	c #002629",
"i.	c #001314",
"j.	c #00585F",
"k.	c #00575E",
"l.	c #00565D",
"m.	c #00565C",
"n.	c #00555B",
"o.	c #005359",
"p.	c #004F55",
"q.	c #00464B",
"r.	c #002F33",
"s.	c #002125",
"t.	c #11FDF6",
"u.	c #0DF1F5",
"v.	c #0BEEF4",
"w.	c #0AEAF2",
"x.	c #09E6F1",
"y.	c #08E0EC",
"z.	c #06D8E5",
"A.	c #05CDDD",
"B.	c #04C0D0",
"C.	c #03B1C1",
"D.	c #029EAD",
"E.	c #018796",
"F.	c #01737F",
"G.	c #00606B",
"H.	c #00525B",
"I.	c #00343A",
". . . . . . . . . . . . . . . . . . . . . . . . . . . . . . . . . . . . . . . . . . . . . . ",
"+ + + + + + + + + + + + + + + + + + + + + + + + + + + + + + + + + + + + + + + + + + + + + + ",
"@ @ @ @ @ @ @ @ @ @ @ @ @ @ @ @ @ @ @ @ @ @ @ @ @ @ @ @ @ @ @ @ @ @ @ @ @ @ @ @ @ @ @ @ @ @ ",
"# # # # # # # # # # # # # # # # # # # # # # # # # # # # # # # # # # # # # # # # # # # # # # ",
"# # # # # # # # # # # # # # # # # # # # # # # # # # # # # # # # # # # # # # # # # # # # # # ",
"# # # # # # # # # # # # # # # # # # # # # # # # # # # # # # # # # # # # # # # # # # # # # # ",
"+ + + + + + + + + + + + + + + + + + + + + + + + + + + + + + + + + + + $ % & # # # # # # # # ",
"# # # # # # # # # # # # # # # # # # # # # # # # # # # # # # # # # # # * = - ; > # # # # # # ",
"# # # # # # # # # # # # # # # # # # # # , ' ) ! ! ! ) ' , # # # # # # # # # ~ { ] # # # # # ",
"# # # # # # # # # # , # # # # # # # # , ' ^ / / ( / / ^ ' , # # # # # # # # # _ : # # # # # ",
"# # # # # # # # # , # # # # # # # # , ' < [ } | 1 | } [ < ' , # # # # # # # # # 2 3 # # # # ",
"# # # # # # # # # # # # # # # # # # ' ^ [ } 4 5 6 5 4 } [ ^ ' # # # # # # # # # # 7 8 # # # ",
"# # # # # # # # # # # # # # # # # # ) / } 4 9 0 9 0 9 4 } / ) # # # # # # # # # # 3 * # # # ",
"# # # # # # # # # # # # # # # # # # ! / | 5 0 a b a 0 5 | / ! # # # # # # # # # # c c # # # ",
"# # # # # # # # # # # # # # # # # # ! ( 1 6 9 b 9 b 9 6 1 ( ! # # # # # # # # # # d c # # # ",
"e e e e e e e e e e e e e e e e e e f g h i j k l k j i h g f e e e e e e e e e e e e e e e ",
". . . . . . . . . . . . . . . . . . m n o p 9 q 9 q 9 p o n m . . . . . . . . . . r s . . . ",
". . . . . . . . . . . . . . . . . . t u v o p w x w p o v u t . . . . . . . . . . s y . . . ",
". . . . . . . . . . . . . . . . . . z t A v o B C B o v A t z . . . . . . . . . D y . . . . ",
". . . . . . . . . . . . . . . . . . E z t u n n F n n u t z E . . . . . . . . G y H . . . . ",
". . . . . . . . . . . . . . . . . . . E z t m I I I m t z E . . . . . . . . G J K L . . . . ",
"M M M M M M M M M M M M M M M M M M M M M M M M M M M M M M M . . . . . . N K O L L . . . . ",
"P P P P P P P P P P P P P P P P P P P P P P P P P P P P P P P P P Q R S T U V W X Y Z ` `  .",
"................................................................+.+.+.@.#.$.%.&.*.R =.-.;.>.",
",.,.,.,.,.,.,.,.,.,.,.,.,.,.,.,.,.,.,.,.,.,.,.,.,.,.,.,.,.,.,.'.'.'.).!.~.{.].^.+./.(.R _.:.",
"<.<.<.<.<.<.<.<.<.<.<.<.<.<.<.<.<.<.<.<.<.<.<.<.<.<.<.<.<.<.<.[.[.}.|.1.2.3.4.5.!.6.7./.8._.",
"9.9.9.9.9.9.9.9.9.9.9.9.9.9.9.9.9.9.9.9.9.9.9.9.9.9.9.9.9.9.9.0.0.a.b.c.d.e.f.}.g.,.h.^.@.i.",
"j.j.j.j.j.j.j.j.j.j.j.j.j.j.j.j.j.j.j.j.j.j.j.j.j.j.j.j.j.j.j.k.k.l.m.n.o.p.a.q.f.3.r.!.s./.",
"t.t.t.t.t.t.t.t.t.t.t.t.t.t.t.t.t.t.t.t.t.t.t.t.t.t.t.t.t.t.t.u.v.w.x.y.z.A.B.C.D.E.F.G.H.I.",
". . . . . . . . . . . . . . . . . . . . . . . . . . . . . . . . . . . . . . . . . . . . . . ",
". . . . . . . . . . . . . . . . . . . . . . . . . . . . . . . . . . . . . . . . . . . . . . "};
