/* XPM */
static char * hide_active_xpm[] = {
"31 30 74 1",
" 	c None",
".	c #3D4748",
"+	c #353C3D",
"@	c #282E2F",
"#	c #283132",
"$	c #283233",
"%	c #283435",
"&	c #283637",
"*	c #283738",
"=	c #282F30",
"-	c #283334",
";	c #293B3C",
">	c #293F40",
",	c #294142",
"'	c #29393A",
")	c #294041",
"!	c #2A484A",
"~	c #2B5052",
"{	c #2B5456",
"]	c #293D3F",
"^	c #2B5658",
"/	c #2C6164",
"(	c #2D6769",
"_	c #283133",
":	c #29393B",
"<	c #2A4648",
"[	c #00FCFF",
"}	c #2C5B5D",
"|	c #2E7275",
"1	c #308387",
"2	c #308D90",
"3	c #293D3E",
"4	c #2A4C4D",
"5	c #2C5F61",
"6	c #151819",
"7	c #151D1E",
"8	c #172628",
"9	c #1A3537",
"0	c #1D4A4C",
"a	c #216366",
"b	c #25767A",
"c	c #268185",
"d	c #000000",
"e	c #010405",
"f	c #030E0F",
"g	c #071E1F",
"h	c #0B3133",
"i	c #000304",
"j	c #020A0B",
"k	c #041314",
"l	c #072122",
"m	c #0F3F41",
"n	c #104648",
"o	c #000102",
"p	c #010607",
"q	c #030D0E",
"r	c #051617",
"s	c #0A2A2C",
"t	c #0B2E30",
"u	c #000001",
"v	c #031011",
"w	c #051516",
"x	c #051718",
"y	c #010506",
"z	c #010708",
"A	c #020B0C",
"B	c #000A0B",
"C	c #001112",
"D	c #001D1F",
"E	c #002C30",
"F	c #003D42",
"G	c #004D53",
"H	c #00585F",
"I	c #11FDF6",
"...............................",
"+++++++++++++++++++++++++++++++",
"@@@@@@@@@@@@@@@@@@@@@@@@@@@@@@@",
"@@@@@@@@@@@@@@@@@@@@@@@@@@@@@@@",
"@@@@@@@@@@@@@@@@@@@@@@@@@@@@@@@",
"...............................",
"@@@@@@@@@@@@@@@@@@@@@@@@@@@@@@@",
"@@@@@@@@@@@@@@@@@@@#$%&**&%$#@@",
"@@@@@@@@@@=@@@@@@@#-&;>,,>;&-#@",
"@@@@@@@@@=@@@@@@@=-')!~{{~!)'-=",
"@@@@@@@@@@@@@@@@@#&]!^/((/^!]&#",
"@@@@@@@@@@@@@@@@@_:<^[[[[[[^<:_",
"@@@@@@@@@@@@@@@@@$;!}|1221|}!;$",
"@@@@@@@@@@@@@@@@@$345[[[[[[543$",
"666666666666666667890abccba0987",
"dddddddddddddddddefgh[[[[[[hgfe",
"dddddddddddddddddijklhmnnmhlkji",
"dddddddddddddddddopqrlsttslrqpo",
"ddddddddddddddddduipjvwxxwvjpiu",
"dddddddddddddddddduiyzjAAjzyiud",
"BBBBBBBBBBBBBBBBBBBBBBBBBBBBBBB",
"CCCCCCCCCCCCCCCCCCCCCCCCCCCCCCC",
"DDDDDDDDDDDDDDDDDDDDDDDDDDDDDDD",
"EEEEEEEEEEEEEEEEEEEEEEEEEEEEEEE",
"FFFFFFFFFFFFFFFFFFFFFFFFFFFFFFF",
"GGGGGGGGGGGGGGGGGGGGGGGGGGGGGGG",
"HHHHHHHHHHHHHHHHHHHHHHHHHHHHHHH",
"IIIIIIIIIIIIIIIIIIIIIIIIIIIIIII",
"ddddddddddddddddddddddddddddddd",
"ddddddddddddddddddddddddddddddd"};
