/* XPM */
static char * maximize_inactive_xpm[] = {
"31 30 59 1",
" 	c None",
".	c #3D4748",
"+	c #353C3D",
"@	c #282E2F",
"#	c #282F30",
"$	c #283132",
"%	c #283133",
"&	c #283233",
"*	c #283334",
"=	c #283637",
"-	c #29393B",
";	c #293B3C",
">	c #293D3E",
",	c #29393A",
"'	c #293D3F",
")	c #2A4648",
"!	c #2A484A",
"~	c #2A4C4D",
"{	c #294041",
"]	c #2B5658",
"^	c #2C5B5D",
"/	c #2C5F61",
"(	c #283435",
"_	c #00FCFF",
":	c #2E7275",
"<	c #2B4E50",
"[	c #2F7E82",
"}	c #293F40",
"|	c #2B5052",
"1	c #2C6164",
"2	c #308387",
"3	c #151819",
"4	c #162122",
"5	c #17292B",
"6	c #1B3C3D",
"7	c #1E4E50",
"8	c #247175",
"9	c #000000",
"0	c #010708",
"a	c #031011",
"b	c #072122",
"c	c #0B3133",
"d	c #135356",
"e	c #010506",
"f	c #020A0B",
"g	c #051617",
"h	c #0D3739",
"i	c #0E3C3E",
"j	c #000304",
"k	c #010607",
"l	c #030D0E",
"m	c #041314",
"n	c #071E1F",
"o	c #082426",
"p	c #000001",
"q	c #030E0F",
"r	c #041213",
"s	c #000102",
"t	c #010405",
"...............................",
"+++++++++++++++++++++++++++++++",
"@@@@@@@@@@@@@@@@@@@@@@@@@@@@@@@",
"@@@@@@@@@@@@@@@@@@@@@@@@@@@@@@@",
"@@@@@@@@@@@@@@@@@@@@@@@@@@@@@@@",
"...............................",
"@@@@@@@@@@@@@@@@@@@@@@@@@@@@@@@",
"@@@@@@@@@@@@@@@@@@@#$%&&&%$#@@@",
"@@@@@@@@@@#@@@@@@@$*=-;>;-=*$@@",
"@@@@@@@@@#@@@@@@@$*,')!~!)',*$@",
"@@@@@@@@@@@@@@@@@&={!]^/^]!{=&@",
"@@@@@@@@@@@@@@@@@(;!]_:_:_]!;(@",
"@@@@@@@@@@@@@@@@@='</_[_[_/<'=@",
"@@@@@@@@@@@@@@@@@=}|1_2_2_1|}=@",
"333333333333333334567_8_8_76543",
"999999999999999990abc_d_d_cba09",
"99999999999999999efgbchihcbgfe9",
"99999999999999999jklmnbobnmlkj9",
"99999999999999999pjkfqaraqfkjp9",
"999999999999999999psjteeetjsp99",
"9999999999999999999999999999999",
"9999999999999999999999999999999",
"9999999999999999999999999999999",
"9999999999999999999999999999999",
"9999999999999999999999999999999",
"9999999999999999999999999999999",
"9999999999999999999999999999999",
"9999999999999999999999999999999",
"9999999999999999999999999999999",
"9999999999999999999999999999999"};
