/* XPM */
static char * shade_active_xpm[] = {
"17 30 81 1",
" 	c None",
".	c #3D4748",
"+	c #353C3D",
"@	c #282E2F",
"#	c #283132",
"$	c #283233",
"%	c #283435",
"&	c #283637",
"*	c #283738",
"=	c #283334",
"-	c #293B3C",
";	c #293F40",
">	c #294142",
",	c #282F30",
"'	c #29393A",
")	c #294041",
"!	c #2A484A",
"~	c #2B5052",
"{	c #2B5456",
"]	c #293D3F",
"^	c #2B5658",
"/	c #2C6164",
"(	c #2D6769",
"_	c #283133",
":	c #29393B",
"<	c #2A4648",
"[	c #305F61",
"}	c #308387",
"|	c #00FCFF",
"1	c #2C5B5D",
"2	c #2E7275",
"3	c #293D3E",
"4	c #2A4C4D",
"5	c #2C5F61",
"6	c #151819",
"7	c #151D1E",
"8	c #172628",
"9	c #1A3537",
"0	c #1D4A4C",
"a	c #216366",
"b	c #25767A",
"c	c #000000",
"d	c #010405",
"e	c #030E0F",
"f	c #071E1F",
"g	c #0B3133",
"h	c #0D3A3D",
"i	c #0F4144",
"j	c #000304",
"k	c #020A0B",
"l	c #041314",
"m	c #072122",
"n	c #0F3F41",
"o	c #104648",
"p	c #000102",
"q	c #010607",
"r	c #030D0E",
"s	c #051617",
"t	c #0A2A2C",
"u	c #0B2E30",
"v	c #000202",
"w	c #000505",
"x	c #010808",
"y	c #020C0C",
"z	c #031212",
"A	c #051717",
"B	c #051919",
"C	c #000606",
"D	c #000909",
"E	c #010B0B",
"F	c #010D0D",
"G	c #021010",
"H	c #021111",
"I	c #000A0B",
"J	c #001112",
"K	c #001D1F",
"L	c #002C30",
"M	c #003D42",
"N	c #004D53",
"O	c #00585F",
"P	c #11FDF6",
".................",
"+++++++++++++++++",
"@@@@@@@@@@@@@@@@@",
"@@@@@@@@@@@@@@@@@",
"@@@@@@@@@@@@@@@@@",
"@@@@@@@@@@@@@@@@@",
"@@@@@@@@@@@@@@@@@",
"@@@@#$%&*&%$#@@@@",
"@@@#=&-;>;-&=#@@@",
"@@,=')!~{~!)'=,,@",
"@@#&]!^/(/^!]&#@@",
"@@_:<^[}|}[^<:_@@",
"@@$-!12|||21!-$@@",
"@@$345|}|}|543$@@",
"667890ab|ba098766",
"ccdefghi|ihgfedcc",
"ccjklmgnongmlkjcc",
"ccpqrsmtutmsrqccc",
"vvvwxyzABAzyxwvvv",
"CCCCDEFGHGFEDCCCC",
"IIIIIIIIIIIIIIIII",
"JJJJJJJJJJJJJJJJJ",
"KKKKKKKKKKKKKKKKK",
"LLLLLLLLLLLLLLLLL",
"MMMMMMMMMMMMMMMMM",
"NNNNNNNNNNNNNNNNN",
"OOOOOOOOOOOOOOOOO",
"PPPPPPPPPPPPPPPPP",
"ccccccccccccccccc",
"ccccccccccccccccc"};
