/* XPM */
static char * title_1_active_xpm[] = {
"1 31 16 1",
" 	c None",
".	c #000000",
"+	c #3D4748",
"@	c #353C3D",
"#	c #282E2F",
"$	c #151819",
"%	c #000202",
"&	c #000606",
"*	c #000A0B",
"=	c #001112",
"-	c #001D1F",
";	c #002C30",
">	c #003D42",
",	c #004D53",
"'	c #00585F",
")	c #11FDF6",
".",
"+",
"@",
"#",
"#",
"#",
"#",
"#",
"#",
"#",
"#",
"#",
"#",
"#",
"#",
"$",
".",
".",
".",
"%",
"&",
"*",
"=",
"-",
";",
">",
",",
"'",
")",
".",
"."};
