/* XPM */
static char * top_right_active_xpm[] = {
"10 40 23 1",
" 	c None",
".	c #000000",
"+	c #454545",
"@	c #444444",
"#	c #353535",
"$	c #3A3A3A",
"%	c #424242",
"&	c #282E2F",
"*	c #303030",
"=	c #3E3E3E",
"-	c #2F2F2F",
";	c #323232",
">	c #3D3D3D",
",	c #333333",
"'	c #404040",
")	c #414141",
"!	c #313131",
"~	c #3F3F3F",
"{	c #3B3B3B",
"]	c #393939",
"^	c #434343",
"/	c #151819",
"(	c #080808",
"          ",
"...       ",
"+@..      ",
"#$@%..    ",
"&*#=+..   ",
"&&-;>@.   ",
"&&&-,').  ",
"&&&&-#@.  ",
"&&&&&*$@. ",
"&&&&&&#+..",
"&&&&&&!~,.",
"&&&&&&&{=.",
"&&&&&&&]^.",
"&&&&&&&]+.",
"&&&&&&&]+.",
"/////////.",
"........(.",
"........(.",
"........(.",
"........(.",
"........(.",
"........(.",
"........(.",
"........(.",
"........(.",
"........(.",
"........(.",
"........(.",
"........(.",
"........(.",
"........(.",
"........(.",
"........(.",
"........(.",
"........(.",
"........(.",
"........(.",
"........(.",
"........(.",
"........(."};
