/* XPM */
static char * top_left_active_xpm[] = {
"21 21 14 1",
" 	c None",
".	c #000000",
"+	c #5E0000",
"@	c #4A0000",
"#	c #190000",
"$	c #6F0000",
"%	c #3D0000",
"&	c #6A0000",
"*	c #370000",
"=	c #350000",
"-	c #5A0000",
";	c #2D0000",
">	c #570000",
",	c #4B0000",
"   .............     ",
"  .+++++++++++++.    ",
" .+@@@@@@@@@@@@@#.   ",
".+@@@@@@@@@@@@@@#....",
".+@@@@@@@@@@@@@#.@$$$",
".+@@@@@@@@@@@@#.%&&&&",
".+%%%%%%%%%%%#.%&&&.&",
".+%%%%%%%%%%#.%+++++$",
".+%%%%%%%%%#.%+++.+.+",
".+%%%%%%%%#.%+++++$+$",
".+*******#.%+++.+.+.+",
".+======#.%+++++$+$+$",
".+=====#.%---.-.-.-.-",
".+;;;;#.%-----$-$-$-$",
".+;;;#.%>>>.>.>.>.>.>",
".+;;#.%>>>>>$>$>$>$>$",
".+##.%,,,.,.,.,.,.,.,",
".+#.%,,,,,$,$,$,$,$,$",
".+#.@@@@@@@@@@@@@@@@@",
".+#.%%%%%%%%%%%%%%%%%",
".+#.................."};
