/* XPM */
static char * left_inactive_xpm[] = {
"4 64 4 1",
" 	c None",
".	c #566157",
"+	c #101311",
"@	c #556057",
".++.",
".++.",
".++.",
"@++.",
"@++.",
".++.",
".++.",
".++@",
".++.",
"@++.",
"@++@",
".++@",
"@++.",
".++.",
"@++.",
"@++.",
".++@",
".++.",
"@++.",
".++@",
"@++.",
".++@",
".++@",
".++.",
"@++.",
"@++@",
".++.",
".++@",
"@++.",
".++@",
".++@",
".++.",
"@++.",
".++@",
"@++@",
"@++.",
".++@",
"@++.",
"@++.",
".++@",
".++@",
"@++.",
".++@",
".++.",
".++.",
".++.",
"@++.",
"@++@",
".++.",
".++@",
".++.",
"@++.",
"@++.",
".++@",
".++.",
".++@",
".++.",
"@++.",
".++.",
".++.",
"@++.",
".++.",
".++.",
".++@"};
