/* XPM */
static char * left_active_xpm[] = {
"4 64 4 1",
" 	c None",
".	c #4E9B9B",
"+	c #102121",
"@	c #4E9999",
".++.",
".++.",
".++.",
"@++.",
"@++.",
".++.",
".++.",
".++@",
".++.",
"@++.",
"@++@",
".++@",
"@++.",
".++.",
"@++.",
"@++.",
".++@",
".++.",
"@++.",
".++@",
"@++.",
".++@",
".++@",
".++.",
"@++.",
"@++@",
".++.",
".++@",
"@++.",
".++@",
".++@",
".++.",
"@++.",
".++@",
"@++@",
"@++.",
".++@",
"@++.",
"@++.",
".++@",
".++@",
"@++.",
".++@",
".++.",
".++.",
".++.",
"@++.",
"@++@",
".++.",
".++@",
".++.",
"@++.",
"@++.",
".++@",
".++.",
".++@",
".++.",
"@++.",
".++.",
".++.",
"@++.",
".++.",
".++.",
".++@"};
