/* XPM */
static char * title_5_inactive_xpm[] = {
"4 21 4 1",
" 	c None",
".	c #5E695F",
"+	c #5D685E",
"@	c #000000",
"    ",
"    ",
"    ",
"...+",
"@@@@",
"@@@@",
"@@@@",
"@@@@",
"@@@@",
"@@@@",
"@@@@",
"@@@@",
"@@@@",
"@@@@",
"@@@@",
"@@@@",
"@@@@",
"@@@@",
"@@@@",
"@@@@",
"...+"};
