/* XPM */
static char * title_4_active_xpm[] = {
"8 21 5 1",
" 	c None",
".	c #3AAFAF",
"+	c #39AEAE",
"@	c #071717",
"#	c #000000",
"        ",
".++.+   ",
"@@@@@.  ",
"@@@+@.++",
"@+@+@.##",
"@@@+@+##",
"@+@.@+##",
"@@@.@+##",
"@.@+@+##",
"@@@.@+##",
"@+@.@.##",
"@@@.@.##",
"@+@.@+##",
"@@@.@+##",
"@+@.@+##",
"@@@.@.##",
"@@@@@+##",
"++.++###",
"########",
"########",
"+.+.++.+"};
