/* XPM */
static char * title_5_active_xpm[] = {
"4 21 3 1",
" 	c None",
".	c #39AEAD",
"+	c #000000",
"    ",
"    ",
"    ",
"....",
"++++",
"++++",
"++++",
"++++",
"++++",
"++++",
"++++",
"++++",
"++++",
"++++",
"++++",
"++++",
"++++",
"++++",
"++++",
"++++",
"...."};
