/* XPM */
static char * top_left_active_xpm[] = {
"21 21 5 1",
" 	c None",
".	c #3AAFAF",
"+	c #39AEAE",
"@	c #0C2525",
"#	c #000000",
"   ......+++.+.+     ",
"  .@@@@@@@@@@@@@+    ",
" +@@@@@@@@@@@@@@@.   ",
".@@@@@@@@@@@@@@@....+",
".@@@@@@@@@@@@@@.#####",
".@@@@@@@@@@@@@.######",
".@@@@@@@@@@@@+#####.#",
".@@@@@@@@@@@+########",
"+@@@@@@@@@@.#####+#+#",
".@@@@@@@@@+##########",
".@@@@@@@@.#####+#.#.#",
".@@@@@@@+############",
"+@@@@@@+#####.#.#+#.#",
"+@@@@@+##############",
".@@@@.#####+#+#+#+#+#",
".@@@+################",
"+@@.#####+#.#+#+#.#.#",
".@@.#################",
".@@.#################",
".@@+#################",
".@@.++.....+++.+....."};
