             Selection     Title        PreLight

Dream        #007092       #00b5e2      #00B5E2
Joy          #CE6700       #cb6200      #FF7A02
Magic        #197878       #29caca      #29CACA
Olympus      #1B5F9E       #2898fa      #289ACA
PastFuture                 #00b800
Pure                       #e0e0e0
Raw          #547290       #86b6e6      #6EA7E0
Rose         #B55B88       #d56aa1      #DB80AD
Violet       #664AA7       #9c71ff      #9C71FF



Text    #050505

Panel   #383838

Sidebar - Sparrow        #3d3d3c
Sidebar - SparrowText    #ebebeb

SideBar - Human          #E6E1DC
SideBar - Sky            #DCE1E6

Evo PreLight   #009849







