/* XPM */
static char * left_inactive_xpm[] = {
"9 64 4 1",
" 	c None",
".	c #000000",
"+	c #080808",
"@	c #2D2D2D",
".++++@@@.",
".++++@@@.",
".++++@@@.",
".++++@@@.",
".++++@@@.",
".++++@@@.",
".++++@@@.",
".++++@@@.",
".++++@@@.",
".++++@@@.",
".++++@@@.",
".++++@@@.",
".++++@@@.",
".++++@@@.",
".++++@@@.",
".++++@@@.",
".++++@@@.",
".++++@@@.",
".++++@@@.",
".++++@@@.",
".++++@@@.",
".++++@@@.",
".++++@@@.",
".++++@@@.",
".++++@@@.",
".++++@@@.",
".++++@@@.",
".++++@@@.",
".++++@@@.",
".++++@@@.",
".++++@@@.",
".++++@@@.",
".++++@@@.",
".++++@@@.",
".++++@@@.",
".++++@@@.",
".++++@@@.",
".++++@@@.",
".++++@@@.",
".++++@@@.",
".++++@@@.",
".++++@@@.",
".++++@@@.",
".++++@@@.",
".++++@@@.",
".++++@@@.",
".++++@@@.",
".++++@@@.",
".++++@@@.",
".++++@@@.",
".++++@@@.",
".++++@@@.",
".++++@@@.",
".++++@@@.",
".++++@@@.",
".++++@@@.",
".++++@@@.",
".++++@@@.",
".++++@@@.",
".++++@@@.",
".++++@@@.",
".++++@@@.",
".++++@@@.",
".++++@@@."};
