/* XPM */
static char * maximize_prelight_xpm[] = {
"21 21 176 2",
"  	c None",
". 	c #035176",
"+ 	c #055178",
"@ 	c #1D79AB",
"# 	c #1D78AB",
"$ 	c #1C78AB",
"% 	c #055278",
"& 	c #045278",
"* 	c #035076",
"= 	c #0174AE",
"- 	c #007BC4",
"; 	c #0386D1",
"> 	c #1B8ECF",
", 	c #2090D0",
"' 	c #2593D1",
") 	c #2895D1",
"! 	c #2995D1",
"~ 	c #2594D0",
"{ 	c #2191CF",
"] 	c #1395DF",
"^ 	c #1394DF",
"/ 	c #0BC3FD",
"( 	c #14C7FD",
"_ 	c #1CC9FD",
": 	c #22CDFD",
"< 	c #26CEFD",
"[ 	c #28CFFD",
"} 	c #23CCFD",
"| 	c #1DCAFD",
"1 	c #209BE1",
"2 	c #1896E0",
"3 	c #0387D1",
"4 	c #0BC2FD",
"5 	c #17C8FD",
"6 	c #21CCFD",
"7 	c #2BD3FD",
"8 	c #33DBFD",
"9 	c #38DDFD",
"0 	c #3ADCFD",
"a 	c #36D5FD",
"b 	c #33D3FD",
"c 	c #2CD1FD",
"d 	c #24CDFD",
"e 	c #239CE1",
"f 	c #0989D2",
"g 	c #045178",
"h 	c #1B8FCF",
"i 	c #09C1FD",
"j 	c #15C7FD",
"k 	c #277676",
"l 	c #30D2FD",
"m 	c #2A95D1",
"n 	c #085278",
"o 	c #1C79AB",
"p 	c #10C5FD",
"q 	c #1DCBFD",
"r 	c #3DEAFD",
"s 	c #4BFAFD",
"t 	c #55FDFD",
"u 	c #5BFDFD",
"v 	c #5FFDFD",
"w 	c #5DFDFD",
"x 	c #53EFFD",
"y 	c #3BD7FD",
"z 	c #2ED2FD",
"A 	c #3399D2",
"B 	c #277DAC",
"C 	c #24CEFD",
"D 	c #48F5FD",
"E 	c #56FDFD",
"F 	c #62FDFD",
"G 	c #6CFDFD",
"H 	c #6FFDFD",
"I 	c #63F9FD",
"J 	c #44DBFD",
"K 	c #37D5FD",
"L 	c #3A9CD3",
"M 	c #2D7FAD",
"N 	c #1C8FCF",
"O 	c #19C8FD",
"P 	c #2AD1FD",
"Q 	c #4FFAFD",
"R 	c #5EFDFD",
"S 	c #6DFDFD",
"T 	c #79FDFD",
"U 	c #7FFDFD",
"V 	c #7BFDFD",
"W 	c #6EFCFD",
"X 	c #4BDDFD",
"Y 	c #3CD7FD",
"Z 	c #3F9ED3",
"` 	c #3181AE",
" .	c #1E90CF",
"..	c #1BCAFD",
"+.	c #2CD2FD",
"@.	c #53FBFD",
"#.	c #73FDFD",
"$.	c #82FDFD",
"%.	c #8EFDFD",
"&.	c #85FDFD",
"*.	c #75FCFD",
"=.	c #4EDFFD",
"-.	c #3FD8FD",
";.	c #419FD4",
">.	c #3382AE",
",.	c #1E8FCF",
"'.	c #2BD0FD",
").	c #50F5FD",
"!.	c #72FDFD",
"~.	c #80FDFD",
"{.	c #8AFDFD",
"].	c #83FDFD",
"^.	c #73FCFD",
"/.	c #419FD3",
"(.	c #1C8ECF",
"_.	c #18C8FD",
":.	c #29CEFD",
"<.	c #49DDFD",
"[.	c #3E9ED4",
"}.	c #195A7B",
"|.	c #13C7FD",
"1.	c #23CDFD",
"2.	c #31D2FD",
"3.	c #41DAFD",
"4.	c #4EE5FD",
"5.	c #5BF0FD",
"6.	c #63F4FD",
"7.	c #66F3FD",
"8.	c #62EBFD",
"9.	c #59E3FD",
"0.	c #42DAFD",
"a.	c #35D4FD",
"b.	c #2093D4",
"c.	c #14587A",
"d.	c #007AC4",
"e.	c #1996DF",
"f.	c #259DE1",
"g.	c #29CFFD",
"h.	c #36D4FD",
"i.	c #41D9FD",
"j.	c #4BDFFD",
"k.	c #51E1FD",
"l.	c #52E1FD",
"m.	c #51E0FD",
"n.	c #4BDEFD",
"o.	c #43A9E5",
"p.	c #37A4E3",
"q.	c #1384C7",
"r.	c #0D5579",
"s.	c #0D8AD2",
"t.	c #3198D2",
"u.	c #3C9DD3",
"v.	c #46A0D4",
"w.	c #4FA4D6",
"x.	c #53A7D6",
"y.	c #55A7D6",
"z.	c #54A7D6",
"A.	c #50A5D5",
"B.	c #48A2D4",
"C.	c #2796D5",
"D.	c #1686C7",
"E.	c #0E7AB0",
"F.	c #065278",
"G.	c #065178",
"H.	c #0F5779",
"I.	c #3281AD",
"J.	c #3A85AF",
"K.	c #4188B0",
"L.	c #468AB0",
"M.	c #478BB0",
"N.	c #478AB0",
"O.	c #4388AF",
"P.	c #245F7B",
"Q.	c #1C5B7B",
"R.	c #12577A",
"S.	c #095278",
"                                          ",
"                                          ",
"                                          ",
"    . + + + + @ @ # $ # @ # % & + % *     ",
"    + = - ; > > , ' ) ! ) ~ { ; - = +     ",
"    + - ] ^ / ( _ : < [ < } | 1 2 - %     ",
"    % 3 ] 4 5 6 7 8 9 0 a b c d e f +     ",
"    g h i j k k k k k k k k k l d m n     ",
"    o > p q k r s t u v w x k y z A B     ",
"    $ > j C k D E F G H G I k J K L M     ",
"    # N O P k Q R S T U V W k X Y Z `     ",
"    @  ...+.k @.F #.$.%.&.*.k =.-.;.>.    ",
"    # ,...'.k ).F !.~.{.].^.k =.-./.>.    ",
"    @ (._.:.k k k k k k k k k <.y [.}.    ",
"    + > |.1.2.3.4.5.6.7.8.9.=.0.a.b.c.    ",
"    + d.e.f.g.h.i.j.k.l.m.n.0.o.p.q.r.    ",
"    & = - s.t.u.v.w.x.y.z.A.B.C.D.E.F.    ",
"    * + + G.H.I.J.K.L.M.N.O.P.Q.R.S.*     ",
"                                          ",
"                                          ",
"                                          "};
