/* XPM */
static char * menu_prelight_xpm[] = {
"21 21 174 2",
"  	c None",
". 	c #035176",
"+ 	c #055178",
"@ 	c #1D79AB",
"# 	c #1D78AB",
"$ 	c #1C78AB",
"% 	c #055278",
"& 	c #045278",
"* 	c #035076",
"= 	c #0174AE",
"- 	c #007BC4",
"; 	c #0386D1",
"> 	c #1B8ECF",
", 	c #2090D0",
"' 	c #2593D1",
") 	c #2895D1",
"! 	c #2995D1",
"~ 	c #2594D0",
"{ 	c #2191CF",
"] 	c #1395DF",
"^ 	c #1394DF",
"/ 	c #0BC3FD",
"( 	c #14C7FD",
"_ 	c #1CC9FD",
": 	c #22CDFD",
"< 	c #26CEFD",
"[ 	c #28CFFD",
"} 	c #23CCFD",
"| 	c #1DCAFD",
"1 	c #209BE1",
"2 	c #1896E0",
"3 	c #0387D1",
"4 	c #0BC2FD",
"5 	c #17C8FD",
"6 	c #257171",
"7 	c #277676",
"8 	c #2CD1FD",
"9 	c #24CDFD",
"0 	c #239CE1",
"a 	c #0989D2",
"b 	c #045178",
"c 	c #1B8FCF",
"d 	c #09C1FD",
"e 	c #15C7FD",
"f 	c #21CCFD",
"g 	c #3DE7FD",
"h 	c #46EFFD",
"i 	c #4BF6FD",
"j 	c #4DF2FD",
"k 	c #4AEAFD",
"l 	c #39D6FD",
"m 	c #30D2FD",
"n 	c #2A95D1",
"o 	c #085278",
"p 	c #1C79AB",
"q 	c #10C5FD",
"r 	c #1DCBFD",
"s 	c #2DD6FD",
"t 	c #4BFAFD",
"u 	c #55FDFD",
"v 	c #5BFDFD",
"w 	c #5FFDFD",
"x 	c #5DFDFD",
"y 	c #46DDFD",
"z 	c #3BD7FD",
"A 	c #2ED2FD",
"B 	c #3399D2",
"C 	c #277DAC",
"D 	c #24CEFD",
"E 	c #37E0FD",
"F 	c #277777",
"G 	c #53E7FD",
"H 	c #44DBFD",
"I 	c #37D5FD",
"J 	c #3A9CD3",
"K 	c #2D7FAD",
"L 	c #1C8FCF",
"M 	c #19C8FD",
"N 	c #2AD1FD",
"O 	c #3DE5FD",
"P 	c #5EFDFD",
"Q 	c #6DFDFD",
"R 	c #79FDFD",
"S 	c #7FFDFD",
"T 	c #7BFDFD",
"U 	c #5BEBFD",
"V 	c #4BDDFD",
"W 	c #3CD7FD",
"X 	c #3F9ED3",
"Y 	c #3181AE",
"Z 	c #1E90CF",
"` 	c #1BCAFD",
" .	c #2CD2FD",
"..	c #40E4FD",
"+.	c #297C7C",
"@.	c #60EDFD",
"#.	c #4EDFFD",
"$.	c #3FD8FD",
"%.	c #419FD4",
"&.	c #3382AE",
"*.	c #1E8FCF",
"=.	c #2BD0FD",
"-.	c #3DDEFD",
";.	c #62FDFD",
">.	c #72FDFD",
",.	c #80FDFD",
"'.	c #8AFDFD",
").	c #83FDFD",
"!.	c #5FE8FD",
"~.	c #419FD3",
"{.	c #1C8ECF",
"].	c #18C8FD",
"^.	c #29CEFD",
"/.	c #39D7FD",
"(.	c #57E2FD",
"_.	c #49DDFD",
":.	c #3E9ED4",
"<.	c #195A7B",
"[.	c #13C7FD",
"}.	c #23CDFD",
"|.	c #31D2FD",
"1.	c #41DAFD",
"2.	c #4EE5FD",
"3.	c #5BF0FD",
"4.	c #63F4FD",
"5.	c #66F3FD",
"6.	c #62EBFD",
"7.	c #59E3FD",
"8.	c #42DAFD",
"9.	c #35D4FD",
"0.	c #2093D4",
"a.	c #14587A",
"b.	c #007AC4",
"c.	c #1996DF",
"d.	c #259DE1",
"e.	c #29CFFD",
"f.	c #36D4FD",
"g.	c #41D9FD",
"h.	c #4BDFFD",
"i.	c #51E1FD",
"j.	c #52E1FD",
"k.	c #51E0FD",
"l.	c #4BDEFD",
"m.	c #43A9E5",
"n.	c #37A4E3",
"o.	c #1384C7",
"p.	c #0D5579",
"q.	c #0D8AD2",
"r.	c #3198D2",
"s.	c #3C9DD3",
"t.	c #46A0D4",
"u.	c #4FA4D6",
"v.	c #53A7D6",
"w.	c #55A7D6",
"x.	c #54A7D6",
"y.	c #50A5D5",
"z.	c #48A2D4",
"A.	c #2796D5",
"B.	c #1686C7",
"C.	c #0E7AB0",
"D.	c #065278",
"E.	c #065178",
"F.	c #0F5779",
"G.	c #3281AD",
"H.	c #3A85AF",
"I.	c #4188B0",
"J.	c #468AB0",
"K.	c #478BB0",
"L.	c #478AB0",
"M.	c #4388AF",
"N.	c #245F7B",
"O.	c #1C5B7B",
"P.	c #12577A",
"Q.	c #095278",
"                                          ",
"                                          ",
"                                          ",
"    . + + + + @ @ # $ # @ # % & + % *     ",
"    + = - ; > > , ' ) ! ) ~ { ; - = +     ",
"    + - ] ^ / ( _ : < [ < } | 1 2 - %     ",
"    % 3 ] 4 5 6 6 6 6 7 6 7 8 9 0 a +     ",
"    b c d e f 6 g h i j k 7 l m 9 n o     ",
"    p > q r s 6 t u v w x 7 y z A B C     ",
"    $ > e D E 7 7 F F F F 7 G H I J K     ",
"    # L M N O 6 P Q R S T 7 U V W X Y     ",
"    @ Z `  ...6 7 F F +.F 7 @.#.$.%.&.    ",
"    # *.` =.-.6 ;.>.,.'.).7 !.#.$.~.&.    ",
"    @ {.].^./.6 6 7 7 7 7 7 (._.z :.<.    ",
"    + > [.}.|.1.2.3.4.5.6.7.#.8.9.0.a.    ",
"    + b.c.d.e.f.g.h.i.j.k.l.8.m.n.o.p.    ",
"    & = - q.r.s.t.u.v.w.x.y.z.A.B.C.D.    ",
"    * + + E.F.G.H.I.J.K.L.M.N.O.P.Q.*     ",
"                                          ",
"                                          ",
"                                          "};
