/* XPM */
static char * shade_active_xpm[] = {
"21 21 11 1",
" 	c None",
".	c #292C29",
"+	c #313031",
"@	c #080C08",
"#	c #000000",
"$	c #58C7C7",
"%	c #57C7C7",
"&	c #55C6C6",
"*	c #54C6C6",
"=	c #52C5C5",
"-	c #50C4C4",
"                     ",
"                     ",
"                     ",
"  .+++++++++++++++.  ",
"  +@#############@+  ",
"  +#@@@@@@@@@@@@@#+  ",
"  +#@@@@@@@@@@@@@#+  ",
"  +#@@@@@@@@@@@@@#+  ",
"  +#@@@@@@@@@@@@@#+  ",
"  +#@@@@@$%%@@@@@#+  ",
"  +#@@@@$%&&&@@@@#+  ",
"  +#@@@$%&**&&@@@#+  ",
"  +#@@$%&&=-&&%@@#+  ",
"  +#@@$$&&**&&%@@#+  ",
"  +#@@@@@@@@@@@@@#+  ",
"  +#@@@@@@@@@@@@@#+  ",
"  +@#############@+  ",
"  .+++++++++++++++.  ",
"                     ",
"                     ",
"                     "};
