/* XPM */
static char * stick_active_xpm[] = {
"21 21 39 1",
" 	c None",
".	c #292C29",
"+	c #313031",
"@	c #080C08",
"#	c #000000",
"$	c #0E1A16",
"%	c #2E6361",
"&	c #234A48",
"*	c #3B807E",
"=	c #58C2C2",
"-	c #5AC6C6",
";	c #5AC5C5",
">	c #54B9B9",
",	c #224744",
"'	c #11211D",
")	c #58C1C1",
"!	c #56C6C6",
"~	c #55C6C6",
"{	c #54C5C5",
"]	c #49A09F",
"^	c #3D8482",
"/	c #50C4C4",
"(	c #56BDBD",
"_	c #142824",
":	c #162D29",
"<	c #54C6C6",
"[	c #4FAEAD",
"}	c #0C1511",
"|	c #4CA7A6",
"1	c #59C5C4",
"2	c #367674",
"3	c #1D3B38",
"4	c #3C8381",
"5	c #51B1B1",
"6	c #4AA3A2",
"7	c #2D605E",
"8	c #0C1612",
"9	c #101F1C",
"0	c #0B130F",
"                     ",
"                     ",
"                     ",
"  .+++++++++++++++.  ",
"  +@#############@+  ",
"  +#@@@@@@@@@@@@@#+  ",
"  +#@@@@@@@@@@@@@#+  ",
"  +#@@@@@$%&@@@@@#+  ",
"  +#@@@@*=-;>,@@@#+  ",
"  +#@@@')!~{!]@@@#+  ",
"  +#@@@^-~//{(_@@#+  ",
"  +#@@@:;{<<{[}@@#+  ",
"  +#@@@@|-!!12@@@#+  ",
"  +#@@@@345678@@@#+  ",
"  +#@@@@@@90@@@@@#+  ",
"  +#@@@@@@@@@@@@@#+  ",
"  +@#############@+  ",
"  .+++++++++++++++.  ",
"                     ",
"                     ",
"                     "};
