/* XPM */
static char * title_2_active_xpm[] = {
"16 26 67 1",
" 	c None",
".	c #454545",
"+	c #484848",
"@	c #5C5C5D",
"#	c #676766",
"$	c #9D9E9D",
"%	c #0D0D0D",
"&	c #121212",
"*	c #070707",
"=	c #131313",
"-	c #030303",
";	c #0B0B0B",
">	c #4D4D4D",
",	c #727271",
"'	c #1A1A1A",
")	c #0F0F0F",
"!	c #1E1E1E",
"~	c #0E0E0E",
"{	c #141515",
"]	c #060606",
"^	c #7D7D7D",
"/	c #959595",
"(	c #0A0B0D",
"_	c #161717",
":	c #020401",
"<	c #888888",
"[	c #555556",
"}	c #383838",
"|	c #42454A",
"1	c #404B57",
"2	c #3E5169",
"3	c #10222D",
"4	c #182C3B",
"5	c #0E334B",
"6	c #12345D",
"7	c #242E3C",
"8	c #21374E",
"9	c #214057",
"0	c #104769",
"a	c #145074",
"b	c #244B63",
"c	c #145482",
"d	c #13608E",
"e	c #0B689B",
"f	c #2E5578",
"g	c #3E92D5",
"h	c #30A0E6",
"i	c #303E47",
"j	c #306B9D",
"k	c #26A9EF",
"l	c #3E6382",
"m	c #5E95C9",
"n	c #3DA7E8",
"o	c #7A9CC5",
"p	c #252525",
"q	c #1A73B1",
"r	c #2B81C0",
"s	c #333333",
"t	c #1C232C",
"u	c #1A3544",
"v	c #000000",
"w	c #020305",
"x	c #020103",
"y	c #010101",
"z	c #000101",
"A	c #000001",
"B	c #000003",
"                ",
".+....+@#$      ",
"%&*=-;>@,,$     ",
"')!~{]*#^,,/    ",
"({(_~&:*<^,#[...",
"}}}}}}}>,^,#[>++",
"}}}}}}}}}#,#@@[[",
"}}}}}}}}}}}}}}}}",
"}}}}}}}}}}}}}}}}",
"}}}}}}}}}}}}}}}}",
"}}}}}}}}}}}}}}}}",
"}}}}}}}}}}|11122",
"}}}}}}}}}|#34556",
"}}}}}}}}1#7890aa",
"}}}}}}}}#79bcdee",
"}}}}}}}#79bfdghh",
"}}}}}}@7i2fjghhk",
"}}}}}@%i1blmnhkk",
"}}}}@%%i1fomgnnn",
"}}}@%%pi12fjjqrr",
"}}@%%spii12flljj",
"}@%%%%&iii9b2fff",
"%%%%%%%%%tttu888",
"%%%%%%%%%%%%tttt",
"%%%%%%%%%%%%%%%%",
"vvwxxxvvxyzzAAAB"};
