/* XPM */
static char * top_right_active_xpm[] = {
"36 26 50 1",
" 	c None",
".	c #555556",
"+	c #3E5169",
"@	c #04283F",
"#	c #032F4D",
"$	c #044067",
"%	c #054974",
"&	c #043A5C",
"*	c #022339",
"=	c #031522",
"-	c #000B16",
";	c #0D0D0D",
">	c #4D4D4D",
",	c #454545",
"'	c #484848",
")	c #676766",
"!	c #5C5C5D",
"~	c #3E6382",
"{	c #5E95C9",
"]	c #3E92D5",
"^	c #3DA7E8",
"/	c #30A0E6",
"(	c #7A9CC5",
"_	c #011C30",
":	c #00111E",
"<	c #060709",
"[	c #141515",
"}	c #0A0B0D",
"|	c #0D1318",
"1	c #888888",
"2	c #727271",
"3	c #1C232C",
"4	c #0E0E0E",
"5	c #1E1E1E",
"6	c #0C0D10",
"7	c #1F1F1F",
"8	c #042C46",
"9	c #477491",
"0	c #383838",
"a	c #0C0C0C",
"b	c #131313",
"c	c #42454A",
"d	c #00040A",
"e	c #011728",
"f	c #044F80",
"g	c #043554",
"h	c #507EA6",
"i	c #404B57",
"j	c #306B9D",
"k	c #000000",
"      .++@#$$$%%%%%%$&#*=-;;        ",
">,'.)!!~*&{]]]^]^/^]]{{(_:!;;       ",
"<[}|1)2_#{]^////////]]{#_)3;4;      ",
"567122:_{{]^^^^^^^^^^{&8903;;;;     ",
"ab2ccd-e*#&$%%%ffff%$g8h000;;;;;    ",
"000000i++~~99jhjhjh999~00000;;;;;   ",
"0000000i+++~~~~~~~~~~+0000000;;;;k  ",
"000000000000000000000000000000;;;;k ",
"0000000000000000000000000000000;;;;k",
"0000000000000000000000000000000;;;;k",
"0000000000000000000000000000000;;;;k",
"0000000000000000000000000000000;;;;k",
"0000000000000000000000000000000;;;;k",
"0000000000000000000000000000000;;;;k",
"0000000000000000000000000000000;;;;k",
"0000000000000000000000000000000;;;;k",
"0000000000000000000000000000000;;;;k",
"0000000000000000000000000000000;;;;k",
"0000000000000000000000000000000;;;;k",
"0000000000000000000000000000000;;;;k",
"0000000000000000000000000000000;;;;k",
"0000000000000000000000000000000;;;;k",
";;;;;;;;;;;;;;;;;;;;;;;;;000000;;;;k",
";;;;;;;;;;;;;;;;;;;;;;;;;;00000;;;;k",
";;;;;;;;;;;;;;;;;;;;;;;;;;;0000;;;;k",
"kkkkkkkkkkkkkkkkkkkkkkkkkkkk000;;;;k"};
