/* XPM */
static char * top_left_active_xpm[] = {
"36 26 50 1",
" 	c None",
".	c #0D0D0D",
"+	c #000B16",
"@	c #031522",
"#	c #022339",
"$	c #032F4D",
"%	c #043A5C",
"&	c #044067",
"*	c #054974",
"=	c #04283F",
"-	c #3E5169",
";	c #555556",
">	c #5C5C5D",
",	c #00111E",
"'	c #011C30",
")	c #7A9CC5",
"!	c #5E95C9",
"~	c #3E92D5",
"{	c #3DA7E8",
"]	c #30A0E6",
"^	c #3E6382",
"/	c #676766",
"(	c #484848",
"_	c #454545",
":	c #4D4D4D",
"<	c #0E0E0E",
"[	c #1C232C",
"}	c #727271",
"|	c #888888",
"1	c #0D1318",
"2	c #0A0B0D",
"3	c #141515",
"4	c #060709",
"5	c #383838",
"6	c #477491",
"7	c #042C46",
"8	c #1F1F1F",
"9	c #0C0D10",
"0	c #1E1E1E",
"a	c #507EA6",
"b	c #043554",
"c	c #044F80",
"d	c #011728",
"e	c #00040A",
"f	c #42454A",
"g	c #131313",
"h	c #0C0C0C",
"i	c #306B9D",
"j	c #404B57",
"k	c #000000",
"        ..+@#$%&******&&&$=--;      ",
"       ..>,')!!~~{]{~{~~~!%#^>>/;(_:",
"      .<.[/'$!~~]]]]]]]]{~!$'}/|1234",
"     ....[567%!{{{{{{{{{{~!!',}}|890",
"    .....555a7b&*cccc***&%$#d+eff}gh",
"   .....55555^666aiaiai66^^--j555555",
"  k....5555555-^^^^^^^^^^---j5555555",
" k....555555555555555555555555555555",
"k....5555555555555555555555555555555",
"k....5555555555555555555555555555555",
"k....5555555555555555555555555555555",
"k....5555555555555555555555555555555",
"k....5555555555555555555555555555555",
"k....5555555555555555555555555555555",
"k....5555555555555555555555555555555",
"k....5555555555555555555555555555555",
"k....5555555555555555555555555555555",
"k....5555555555555555555555555555555",
"k....5555555555555555555555555555555",
"k....5555555555555555555555555555555",
"k....5555555555555555555555555555555",
"k....5555555555555555555555555555555",
"k....555555.........................",
"k....55555..........................",
"k....5555...........................",
"k....555kkkkkkkkkkkkkkkkkkkkkkkkkkkk"};
