/* XPM */
static char * top_right_inactive_xpm[] = {
"1 20 3 1",
" 	c None",
".	c #87A68D",
"+	c #000000",
".",
".",
"+",
"+",
"+",
"+",
"+",
"+",
"+",
"+",
"+",
"+",
"+",
"+",
"+",
"+",
"+",
"+",
"+",
"+"};
