/* XPM */
static char * bottom_right_inactive_xpm[] = {
"8 8 3 1",
" 	c None",
".	c #000000",
"+	c #353535",
".++.    ",
"+++.    ",
"+++.    ",
"...     ",
"        ",
"        ",
"        ",
"        "};
