/* XPM */
static char * hide_pressed_xpm[] = {
"16 24 30 1",
" 	c None",
".	c #000000",
"+	c #3B3B3B",
"@	c #393939",
"#	c #383838",
"$	c #373737",
"%	c #363636",
"&	c #343434",
"*	c #333333",
"=	c #323232",
"-	c #313131",
";	c #4D4D4D",
">	c #525252",
",	c #FEFEFD",
"'	c #4F4E48",
")	c #ECE9C9",
"!	c #E9E5BE",
"~	c #ECE9C8",
"{	c #504F48",
"]	c #303030",
"^	c #33322C",
"/	c #343111",
"(	c #3F3B14",
"_	c #3C3914",
":	c #353211",
"<	c #2F2F2F",
"[	c #2E2E2E",
"}	c #2A2A29",
"|	c #292928",
"1	c #353535",
"................",
"+++++++++++++++@",
"@@@@@@@@@@@@@@@@",
"################",
"$$$$$$$$$$$$$$$$",
"%%%%%%%%%%%%%%%%",
"&&&&&&&&&&&&&&&&",
"****************",
"================",
"================",
"---%;>>>>>;%----",
"---;,,,,,,,;----",
"---')!!!!!~{----",
"]]]^/(____:^<]]]",
"]]][}|||||}[]]]]",
"]]]]<<<<<<<]]]]]",
"]]]]]]]]]]]]]]]]",
"----------------",
"****************",
"****************",
"&&&&&&&&&&&&&&&&",
"1111111111111111",
"1111111111111111",
"................"};
