/* XPM */
static char * top_right_active_xpm[] = {
"8 24 12 1",
" 	c None",
".	c #000000",
"+	c #393939",
"@	c #373737",
"#	c #383838",
"$	c #353535",
"%	c #363636",
"&	c #343434",
"*	c #333333",
"=	c #323232",
"-	c #313131",
";	c #303030",
"        ",
"..      ",
"+@.     ",
"##.     ",
"@@$.    ",
"%%%.    ",
"&&&.    ",
"***.    ",
"===.    ",
"===.    ",
"---.    ",
"---.    ",
"---.    ",
";;;.    ",
";;;.    ",
";;;.    ",
";;;.    ",
"---.    ",
"***.    ",
"***.    ",
"&&&.    ",
"$$$.    ",
"$$$.    ",
".$$.    "};
