/* XPM */
static char * bottom_left_active_xpm[] = {
"22 35 13 1",
" 	c None",
".	c #184D63",
"+	c #1E1E1E",
"@	c #0C0C0C",
"#	c #171717",
"$	c #212121",
"%	c #1C1C1C",
"&	c #010101",
"*	c #121212",
"=	c #101010",
"-	c #161616",
";	c #141414",
">	c #111111",
".+@.                  ",
".+@.                  ",
".+@.                  ",
".+@.                  ",
".+@.                  ",
".+@.                  ",
".+@.                  ",
".+@.                  ",
".+@.                  ",
".+@.                  ",
".+@.                  ",
".+@.                  ",
".+@.                  ",
".+@.                  ",
".+@.                  ",
".+@.                  ",
".+@.                  ",
".+#...................",
".+##++++++++++++++.$$$",
".##################.$%",
" .@@@@@@@@@@@@@@@@@@.$",
"  ........&&&&&&&&&&&.",
"          .@@@@@@@@@@@",
"           .*=========",
"            .-********",
"             .+;;;;;;;",
"              .+------",
"               .>@@@@@",
"                ......",
"                      ",
"                      ",
"                      ",
"                      ",
"                      ",
"                      "};
