/* XPM */
static char * hide_active_xpm[] = {
"12 21 9 1",
" 	c None",
".	c #000000",
"+	c #153E3E",
"@	c #0B2020",
"#	c #0C2525",
"$	c #0E2727",
"%	c #0F2A2A",
"&	c #292829",
"*	c #061313",
"            ",
"            ",
"            ",
"            ",
"            ",
"            ",
" .......... ",
".+++++++++@.",
".+@@@@@@@@@.",
".+@@@@@@@@@.",
".+@@@@@@@@@.",
".+########@.",
".+$$$$$$$$@.",
".+%&&&&&&%@.",
".+%&&&&&&%@.",
".+%%%%%%%%@.",
".*********@.",
" .......... ",
"            ",
"            ",
"            "};
