/* XPM */
static char * shade_active_xpm[] = {
"12 21 9 1",
" 	c None",
".	c #000000",
"+	c #0E2843",
"@	c #071422",
"#	c #292829",
"$	c #081727",
"%	c #09192A",
"&	c #091B2E",
"*	c #040B13",
"            ",
"            ",
"            ",
"            ",
"            ",
"            ",
" .......... ",
".+++++++++@.",
".+@@@@@@@@@.",
".+@@@@@@@@@.",
".+@@@##@@@@.",
".+$$####$$@.",
".+%######%@.",
".+&######&@.",
".+&&&&&&&&@.",
".+&&&&&&&&@.",
".*********@.",
" .......... ",
"            ",
"            ",
"            "};
