{
  "AstroNvim": { "branch": "main", "commit": "1411df4d970e59f1b5721556a043c5c828daf5ad" },
  "Comment.nvim": { "branch": "master", "commit": "e30b7f2008e52442154b66f7c519bfd2f1e32acb" },
  "LuaSnip": { "branch": "master", "commit": "03c8e67eb7293c404845b3982db895d59c0d1538" },
  "aerial.nvim": { "branch": "master", "commit": "3284a2cb858ba009c79da87d5e010ccee3c99c4d" },
  "alpha-nvim": { "branch": "main", "commit": "de72250e054e5e691b9736ee30db72c65d560771" },
  "astrocore": { "branch": "main", "commit": "44a3dc0bf1591022b2a6bc89dccdfac1be17bec9" },
  "astrolsp": { "branch": "main", "commit": "1cfc15987a2c8eca678bd2001609e2bc76612332" },
  "astrotheme": { "branch": "main", "commit": "f12dcf64b1f9a05839c3ac2146f550f43bae9dab" },
  "astroui": { "branch": "main", "commit": "076766c1d422db486378354729f8fa7c1a68b745" },
  "auto-save.nvim": { "branch": "main", "commit": "29f793a3a7f98129387590269ffe3ad61ab5e509" },
  "better-escape.nvim": { "branch": "master", "commit": "199dcc2643dec5d8dbdab4ec672cf405224dcb3b" },
  "bullets.vim": { "branch": "master", "commit": "af7e7adfd0d9b349cd48eb730e337fe3628b12b2" },
  "cmp-buffer": { "branch": "main", "commit": "3022dbc9166796b644a841a02de8dd1cc1d311fa" },
  "cmp-dap": { "branch": "master", "commit": "ea92773e84c0ad3288c3bc5e452ac91559669087" },
  "cmp-nvim-lsp": { "branch": "main", "commit": "99290b3ec1322070bcfb9e846450a46f6efa50f0" },
  "cmp-path": { "branch": "main", "commit": "91ff86cd9c29299a64f968ebb45846c485725f23" },
  "cmp_luasnip": { "branch": "master", "commit": "98d9cb5c2c38532bd9bdb481067b20fea8f32e90" },
  "dressing.nvim": { "branch": "master", "commit": "3a45525bb182730fe462325c99395529308f431e" },
  "friendly-snippets": { "branch": "main", "commit": "efff286dd74c22f731cdec26a70b46e5b203c619" },
  "gitsigns.nvim": { "branch": "main", "commit": "0b04035bb7b3c83e999b9676e2fb46fd0aa9f910" },
  "guess-indent.nvim": { "branch": "main", "commit": "6cd61f7a600bb756e558627cd2e740302c58e32d" },
  "heirline.nvim": { "branch": "master", "commit": "cc359b628266cb9a84b2d71c883f2b99e16473a0" },
  "image.nvim": { "branch": "master", "commit": "6ffafab2e98b5bda46bf227055aa84b90add8cdc" },
  "indent-blankline.nvim": { "branch": "master", "commit": "e10626f7fcd51ccd56d7ffc00883ba7e0aa28f78" },
  "knap": { "branch": "main", "commit": "7db44d0bb760120142cc1e8f43e44976de59c2f6" },
  "lazy.nvim": { "branch": "main", "commit": "7e6c863bc7563efbdd757a310d17ebc95166cef3" },
  "lazydev.nvim": { "branch": "main", "commit": "f59bd14a852ca43db38e3662395354cb2a9b13e0" },
  "lsp_signature.nvim": { "branch": "master", "commit": "5b64964ed02098c85613ee3d20f96bed1dfb64cc" },
  "lspkind.nvim": { "branch": "master", "commit": "d79a1c3299ad0ef94e255d045bed9fa26025dab6" },
  "lualine.nvim": { "branch": "master", "commit": "f4f791f67e70d378a754d02da068231d2352e5bc" },
  "luarocks.nvim": { "branch": "main", "commit": "1db9093915eb16ba2473cfb8d343ace5ee04130a" },
  "mason-lspconfig.nvim": { "branch": "main", "commit": "1a31f824b9cd5bc6f342fc29e9a53b60d74af245" },
  "mason-null-ls.nvim": { "branch": "main", "commit": "2b8433f76598397fcc97318d410e0c4f7a4bea6a" },
  "mason-nvim-dap.nvim": { "branch": "main", "commit": "8b9363d83b5d779813cdd2819b8308651cec2a09" },
  "mason.nvim": { "branch": "main", "commit": "fc98833b6da5de5a9c5b1446ac541577059555be" },
  "mini.bufremove": { "branch": "main", "commit": "1ee294a97e091d3cf967974df622c0d887890dc2" },
  "mini.icons": { "branch": "main", "commit": "ec61af6e606fc89ee3b1d8f2f20166a3ca917a36" },
  "neo-tree.nvim": { "branch": "main", "commit": "e96fd85bf18bc345dab332b345098fa5460dffac" },
  "neoconf.nvim": { "branch": "main", "commit": "7c4427112d75f866d630d3eef4c06c4e37b5d042" },
  "none-ls.nvim": { "branch": "main", "commit": "f41624ea1a73f020ddbd33438f74abb95ea17d55" },
  "nui.nvim": { "branch": "main", "commit": "a0fd35fcbb4cb479366f1dc5f20145fd718a3733" },
  "nvim-autopairs": { "branch": "master", "commit": "68f0e5c3dab23261a945272032ee6700af86227a" },
  "nvim-cmp": { "branch": "main", "commit": "12509903a5723a876abd65953109f926f4634c30" },
  "nvim-colorizer.lua": { "branch": "master", "commit": "9b5fe0450bfb2521c6cea29391e5ec571f129136" },
  "nvim-dap": { "branch": "master", "commit": "52302f02fea3a490e55475de52fa4deb8af2eb11" },
  "nvim-dap-ui": { "branch": "master", "commit": "bc81f8d3440aede116f821114547a476b082b319" },
  "nvim-lspconfig": { "branch": "master", "commit": "7af2c37192deae28d1305ae9e68544f7fb5408e1" },
  "nvim-nio": { "branch": "master", "commit": "21f5324bfac14e22ba26553caf69ec76ae8a7662" },
  "nvim-notify": { "branch": "master", "commit": "a3020c2cf4dfc4c4f390c4a21e84e35e46cf5d17" },
  "nvim-treesitter": { "branch": "master", "commit": "2cade9e3d105732b794bc37e7cb2dc53b1cf99dc" },
  "nvim-treesitter-textobjects": { "branch": "master", "commit": "ad8f0a472148c3e0ae9851e26a722ee4e29b1595" },
  "nvim-ts-autotag": { "branch": "main", "commit": "4c00b86bd1246ba9c4cd50a823d8296cd2eb9663" },
  "nvim-ts-context-commentstring": { "branch": "main", "commit": "1b212c2eee76d787bbea6aa5e92a2b534e7b4f8f" },
  "nvim-ufo": { "branch": "main", "commit": "a5390706f510d39951dd581f6d2a972741b3fa26" },
  "nvim-web-devicons": { "branch": "master", "commit": "1020869742ecb191f260818234517f4a1515cfe8" },
  "nvim-window-picker": { "branch": "main", "commit": "0dfef64eaf063e1cd27983ab11a30e7bc5b74fac" },
  "obsidian.nvim": { "branch": "main", "commit": "14e0427bef6c55da0d63f9a313fd9941be3a2479" },
  "oil.nvim": { "branch": "master", "commit": "975a77cce3c8cb742bc1b3629f4328f5ca977dad" },
  "outline.nvim": { "branch": "main", "commit": "f01eae624e6170656b6fadd6d7b8717636078bd6" },
  "plenary.nvim": { "branch": "master", "commit": "857c5ac632080dba10aae49dba902ce3abf91b35" },
  "presence.nvim": { "branch": "main", "commit": "87c857a56b7703f976d3a5ef15967d80508df6e6" },
  "promise-async": { "branch": "main", "commit": "38a4575da9497326badd3995e768b4ccf0bb153e" },
  "render-markdown.nvim": { "branch": "main", "commit": "4a28c135bc3548e398ba38178fec3f705cb26fe6" },
  "resession.nvim": { "branch": "master", "commit": "cc819b0489938d03e4f3532a583354f0287c015b" },
  "smart-splits.nvim": { "branch": "master", "commit": "4a231987665d3c6e02ca88833d050e918afe3e1e" },
  "snacks.nvim": { "branch": "main", "commit": "4e13b24e999e844ad4e6cd9dd1bc7021262ee4d6" },
  "solarized-osaka.nvim": { "branch": "main", "commit": "e96ec4bb1a622d969d77bb0b4ffd525ccc44b73a" },
  "telescope-fzf-native.nvim": { "branch": "main", "commit": "2a5ceff981501cff8f46871d5402cd3378a8ab6a" },
  "telescope.nvim": { "branch": "master", "commit": "78857db9e8d819d3cc1a9a7bdc1d39d127a36495" },
  "todo-comments.nvim": { "branch": "main", "commit": "ae0a2afb47cf7395dc400e5dc4e05274bf4fb9e0" },
  "toggleterm.nvim": { "branch": "main", "commit": "50ea089fc548917cc3cc16b46a8211833b9e3c7c" },
  "vim-antlr4": { "branch": "master", "commit": "f8c57956be08598ecf30229cbaa4addf0d2901d4" },
  "vim-illuminate": { "branch": "master", "commit": "b5713e6ca3f627b46968386d6d3f24d374d3cb17" },
  "vim-move": { "branch": "master", "commit": "3c4195de0748da9bba25c54d78d959d349e93c55" },
  "vim-oscyank": { "branch": "main", "commit": "f3ee79921d9c11edbd26f2c1f52df26f994467ec" },
  "vim-prettier": { "branch": "master", "commit": "7dbdbb12c50a9f4ba72390cce2846248e4368fd0" },
  "vim-syntax-bind-named": { "branch": "master", "commit": "8a7eb63c9ff7ef216a96eb474a4e0bd0c425758e" },
  "vim-tmux-navigator": { "branch": "master", "commit": "d847ea942a5bb4d4fab6efebc9f30d787fd96e65" },
  "vim-visual-multi": { "branch": "master", "commit": "a6975e7c1ee157615bbc80fc25e4392f71c344d4" },
  "which-key.nvim": { "branch": "main", "commit": "b74a3c85f03225bc91f4f5a9056518d3fa9a3470" }
}
