/* XPM */
static char * title_5_active_xpm[] = {
"4 21 11 1",
" 	c None",
".	c #000000",
"+	c #3C3407",
"@	c #393106",
"#	c #352E06",
"$	c #332D06",
"%	c #322B05",
"&	c #302905",
"*	c #2C2605",
"=	c #2A2505",
"-	c #231F04",
"    ",
"    ",
"    ",
"....",
"++++",
"@@@@",
"@@@@",
"####",
"####",
"####",
"$$$$",
"$$$$",
"%%%%",
"%%%%",
"&&&&",
"&&&&",
"****",
"****",
"====",
"----",
"...."};
