/* XPM */
static char * close_pressed_xpm[] = {
"25 30 23 1",
" 	c None",
".	c #949494",
"+	c #8D8D8D",
"@	c #848484",
"#	c #7D7D7D",
"$	c #747474",
"%	c #6D6D6D",
"&	c #000000",
"*	c #353535",
"=	c #9A9A9A",
"-	c #707070",
";	c #666666",
">	c #555555",
",	c #414141",
"'	c #FFFFFF",
")	c #2E2E2E",
"!	c #1D1D1D",
"~	c #580000",
"{	c #760000",
"]	c #910000",
"^	c #CB0101",
"/	c #CD9B9B",
"(	c #202020",
".........................",
"+++++++++++++++++++++++++",
"@@@@@@@@@@@@@@@@@@@@@@@@@",
"#########################",
"$$$$$$$$$$$$$$$$$$$$$$$$$",
"%%%%%%%%%%%%%%%%%%%%%%%%%",
"&&&&&&&&&&&&&&&&&&&&&&&&&",
"*=======================*",
"*=---------------------=*",
"*=;;;;;;;;;;;;;;;;;;;;;=*",
"*=>>>>>>>>&>>>&>>>>>>>>=*",
"*=,,,,,,,&'&,&'&,,,,,,,=*",
"*=))))))))&'&'&))))))))=*",
"*=!!!!!!!!!&'&!!!!!!!!!=*",
"*=~~~~~~~~~&'&~~~~~~~~~=*",
"*={{{{{{{{&'&'&{{{{{{{{=*",
"*=]]]]]]]&'&]&'&]]]]]]]=*",
"*=^^^^^^^^&^^^&^^^^^^^^=*",
"*=/////////////////////=*",
"(***********************(",
"&&&&&&&&&&&&&&&&&&&&&&&&&",
"&&&&&&&&&&&&&&&&&&&&&&&&&",
"&&&&&&&&&&&&&&&&&&&&&&&&&",
"&&&&&&&&&&&&&&&&&&&&&&&&&",
"&&&&&&&&&&&&&&&&&&&&&&&&&",
"&&&&&&&&&&&&&&&&&&&&&&&&&",
"&&&&&&&&&&&&&&&&&&&&&&&&&",
"&&&&&&&&&&&&&&&&&&&&&&&&&",
"&&&&&&&&&&&&&&&&&&&&&&&&&",
"&&&&&&&&&&&&&&&&&&&&&&&&&"};
