/* XPM */
static char * title_5_inactive_xpm[] = {
"4 21 11 1",
" 	c None",
".	c #010101",
"+	c #232323",
"@	c #212121",
"#	c #1F1F1F",
"$	c #1E1E1E",
"%	c #1D1D1D",
"&	c #1C1C1C",
"*	c #1B1B1B",
"=	c #1A1A1A",
"-	c #151515",
"    ",
"    ",
"    ",
"....",
"++++",
"@@@@",
"@@@@",
"####",
"####",
"####",
"$$$$",
"$$$$",
"%%%%",
"%%%%",
"&&&&",
"&&&&",
"****",
"****",
"====",
"----",
"...."};
