/* XPM */
static char * shade_prelight_xpm[] = {
"13 23 8 1",
" 	c None",
".	c #5F5F5F",
"+	c #FFFFFF",
"@	c #1A1A1A",
"#	c #232323",
"$	c #333333",
"%	c #525252",
"&	c #3B3B3B",
".............",
"+++++++++++++",
"+++++++++++++",
"+++++++++++++",
"@@@@@@@@@@@@@",
"@@@@@@#@@@@@@",
"@@@@@#$#@@@@@",
"@@@@#$%$#@@@@",
"@@@#$%+%$#@@@",
"@@#$%+++%$#@@",
"@#&%+%+%+%$#@",
"@@#$&%+%&$#@@",
"@@@#$%+%$#@@@",
"@@@@#$%$#@@@@",
"@@@@@#&#@@@@@",
"@@@@@@#@@@@@@",
"@@@@@@@@@@@@@",
"@@@@@@@@@@@@@",
"@@@@@@@@@@@@@",
"@@@@@@@@@@@@@",
"@@@@@@@@@@@@@",
"@@@@@@@@@@@@@",
"@@@@@@@@@@@@@"};
