/* XPM */
static char * title_1_active_xpm[] = {
"1 23 4 1",
" 	c None",
".	c #5F5F5F",
"+	c #FFFFFF",
"@	c #1A1A1A",
".",
"+",
"+",
"+",
"+",
"+",
"+",
"+",
"+",
"+",
"+",
"+",
"+",
"+",
"+",
"+",
"@",
"@",
"@",
"@",
"@",
"@",
"@"};
