/* XPM */
static char * top_left_active_xpm[] = {
"5 23 4 1",
" 	c None",
".	c #555555",
"+	c #FFFFFF",
"@	c #1A1A1A",
"     ",
"   ..",
"  .++",
" .+++",
" .+++",
".++++",
".++++",
".++++",
".++++",
".++++",
".++++",
".++++",
".++++",
".++++",
".++++",
".++++",
".++@@",
".+@@@",
".+@@@",
".+@@@",
".+@@@",
".+@@@",
".+@@@"};
