/* XPM */
static char * bottom_left_active_xpm[] = {
"52 14 93 2",
"  	c None",
". 	c #000000",
"+ 	c #0F0F0F",
"@ 	c #0A0709",
"# 	c #0D0D0D",
"$ 	c #383838",
"% 	c #0A0B0D",
"& 	c #101010",
"* 	c #020202",
"= 	c #030001",
"- 	c #020103",
"; 	c #040404",
"> 	c #000001",
", 	c #010101",
"' 	c #010303",
") 	c #010200",
"! 	c #000101",
"~ 	c #070909",
"{ 	c #0C0C0C",
"] 	c #0C0D10",
"^ 	c #21374E",
"/ 	c #0E0E0E",
"( 	c #5E95C9",
"_ 	c #1894D1",
": 	c #07090B",
"< 	c #080808",
"[ 	c #060B0F",
"} 	c #0D1318",
"| 	c #071017",
"1 	c #07141D",
"2 	c #10171D",
"3 	c #0A0F13",
"4 	c #0B0B0B",
"5 	c #111111",
"6 	c #0A0A0A",
"7 	c #0C0D0A",
"8 	c #050806",
"9 	c #091A23",
"0 	c #071C2A",
"a 	c #062133",
"b 	c #0F1B28",
"c 	c #090909",
"d 	c #141414",
"e 	c #0B2438",
"f 	c #04283F",
"g 	c #042C46",
"h 	c #032F4D",
"i 	c #0E334B",
"j 	c #0D2C41",
"k 	c #10222D",
"l 	c #121212",
"m 	c #131313",
"n 	c #0C0A0A",
"o 	c #043554",
"p 	c #044067",
"q 	c #0F2D82",
"r 	c #043A5C",
"s 	c #054974",
"t 	c #044F80",
"u 	c #022339",
"v 	c #011728",
"w 	c #010F19",
"x 	c #000A12",
"y 	c #161616",
"z 	c #191919",
"A 	c #1A1A1A",
"B 	c #040609",
"C 	c #161717",
"D 	c #070707",
"E 	c #181818",
"F 	c #141515",
"G 	c #031522",
"H 	c #3E92D5",
"I 	c #3DA7E8",
"J 	c #30A0E6",
"K 	c #011C30",
"L 	c #00111E",
"M 	c #3B3B3B",
"N 	c #1D1D1D",
"O 	c #1C1C1C",
"P 	c #030303",
"Q 	c #242424",
"R 	c #303E47",
"S 	c #030406",
"T 	c #060709",
"U 	c #050505",
"V 	c #282828",
"W 	c #7A9CC5",
"X 	c #54B3E5",
"Y 	c #00040A",
"Z 	c #000B16",
"` 	c #040D14",
" .	c #000205",
". + @ # + $ $ $ .                                                                                       ",
". + % # & $ $ $ * = - ; > , ' ) ) , * , . , ) , . , * , ! , = = . , = . . * * , . , * , . * * , . , * * ",
". + ~ { + $ $ . . . . . . . . . . . . . . . . . . . . . . . . . . . . . . . . . . . . . . . . . . . . . ",
". + ] & & $ . . . . . . . . . . . . . . . . . . . . . . . . . . . . . . . . . . . . . . . ^ ^ ^ ^ ^ ^ ^ ",
". + ~ # / . . . . . . . . . . . . . . . . . . . . . . . . . . . . . . . . . . . . . . . . ^ ( ( _ _ _ _ ",
". + : < . . [ } | 1 1 1 1 1 1 1 1 } 2 } } } 3 + 4 / 5 6 # & + ] # # 7 / / / # + # + / + / ^ ( ( _ _ _ _ ",
". + 8 5 7 } 1 9 0 0 a a a a a 0 a 0 b b 9 | } 3 ] # c d # 4 % + # & 5 / # & 4 5 c + 6 # { ^ ^ ^ ^ ^ ^ ^ ",
". + 7 7 7 9 a e f g h h i h i h i j e a k 9 2 } 3 & / < # l m % & c n & 5 / m { l { l + l # . . . . . . ",
". + ~ 6 b a j h o p p p p p q p p r o g e 0 1 } } & + + 5 c % ] ] + m n # / 4 + 4 & # / m 5 < . . . . . ",
". + ~ b 0 h h r p s t t t t t t t s p h u v w x 3 ] $ y < z 6 A B C D E + F 6 E < F D 6 * 6 4 D . . . . ",
". + } G g g r ( H H H H H I I J J H H ( ( K L 1 3 M N { A 7 O % N % O / y & O # O < / P / # 4 Q *       ",
". + x G K o ( H I J J J J J J J J H H ( g K v 1 R C S E 6 y c A T z % C # d 6 C D & * U c 6 V ;         ",
". & & L K W ( ( I I I I I I I I I X ( r f a 9 | [ : # D @ @ < % T 6 ~ ~ D c 6 6 c < c 4 D $ .           ",
"  . Y Z L u g o r r p p p p p p p o h f a b 1 ` Y  .> . . . . . . . . . . . . . . . . . , ,             "};
