/* XPM */
static char * maximize_inactive_xpm[] = {
"12 21 2 1",
" 	c None",
".	c #2D2D2D",
"            ",
"            ",
"            ",
"            ",
"            ",
"            ",
"   ......   ",
"  ........  ",
" .......... ",
"............",
"............",
"............",
"............",
"............",
"............",
" .......... ",
"  ........  ",
"   ......   ",
"            ",
"            ",
"            "};
