/* XPM */
static char * menu_pressed_xpm[] = {
"12 21 4 1",
" 	c None",
".	c #383838",
"+	c #00FFFF",
"@	c #383738",
"            ",
"            ",
"            ",
"            ",
"            ",
"            ",
"   ......   ",
"  ........  ",
" .......... ",
"............",
"...++++++...",
"...++++++...",
"@...++++....",
".....++.....",
"............",
" .......... ",
"  ........  ",
"   ......   ",
"            ",
"            ",
"            "};
