/* XPM */
static char * shade_pressed_xpm[] = {
"12 21 3 1",
" 	c None",
".	c #383838",
"+	c #00FFFF",
"            ",
"            ",
"            ",
"            ",
"            ",
"            ",
"   ......   ",
"  ........  ",
" .......... ",
"............",
".....++.....",
"....++++....",
"...++++++...",
"...++++++...",
"............",
" .......... ",
"  ........  ",
"   ......   ",
"            ",
"            ",
"            "};
