/* XPM */
static char * stick_active_xpm[] = {
"12 21 3 1",
" 	c None",
".	c #383838",
"+	c #4F4F4F",
"            ",
"            ",
"            ",
"            ",
"            ",
"            ",
"   ......   ",
"  ........  ",
" .......... ",
".....+..+...",
".....++++...",
"...+++..+...",
"...+++..+...",
".....++++...",
".....+..+...",
" .......... ",
"  ........  ",
"   ......   ",
"            ",
"            ",
"            "};
