/* XPM */
static char * maximize_toggled_active_xpm[] = {
"28 20 6 1",
" 	c None",
".	c #5AF3F7",
"+	c #081418",
"@	c #071418",
"#	c #081318",
"$	c #081417",
"............................",
"............................",
"++++++++++++++@+++++++++++++",
"++++++++++++++++++++++++++++",
"++++++++++++++++++++++++++++",
"++++++++++++++++++++++++++++",
"+++++.+++.+.+++.+.+++.++++++",
"+++++.+++.+..+..+.+++.++++++",
"+++++.+++.+.+.+.++.+.+#+++++",
"+++++.+++.+.+.+.+++.++++++++",
"+++++.+++.+.+++.+++.++++++++",
"+++++.+++.+.+++.++.+.+++++++",
"+++++.+++.+.+++.+.+++.++++++",
"++++++...++.+++.+.+++.++++++",
"++++++++++#+++++++++++++$+++",
"++++++++++++++++++++++++++++",
"++++++++++++++++++++++++++++",
"++++++++++++++++++++++++++++",
"++++++++++++++++++++++++++++",
"++++++++++++++$+++++++++++++"};
