/* XPM */
static char * stick_toggled_inactive_xpm[] = {
"28 20 6 1",
" 	c None",
".	c #87A68D",
"+	c #081418",
"@	c #071418",
"#	c #081417",
"$	c #80A187",
"............................",
"............................",
"+++++++++++++++@++++++++++++",
"++++++++++++++++++++++++++++",
"++++++++++++++++++++++++++++",
"++++++++++++++++++++++++++++",
"++++#$+++$++$$$++$$$$$++++++",
"+++++$+++$+$+++$+++$++++++++",
"+++++$+++$+$+++++++$++++++++",
"+++++$+++$++$$$++++$++++++++",
"+++++$+++$+++++$+++$++++++++",
"+++++$+++$+++++$+++$++++++++",
"+++++$+++$+$+++$+++$+++++@++",
"++++++$$$+++$$$++++$++++++++",
"++++++++++++++++++++++++++++",
"+++++++++++++#++++++++++++++",
"++++++++++++++++++++++++++++",
"++++++++++++++++++++++#+++++",
"++++++++++++++++++++++++++++",
"++++++++++++++++++++++++++++"};
