/* XPM */
static char * stick_pressed_xpm[] = {
"28 20 7 1",
" 	c None",
".	c #5AF3F7",
"+	c #081418",
"@	c #88F400",
"#	c #081318",
"$	c #081417",
"%	c #071418",
"............................",
"............................",
"++++++++++++++++++++++++++++",
"++++++++++++++++++++++++++++",
"++++++++++++++++++++++++++++",
"++++++++++++++++++++++++++++",
"++++++@@@++@@@@@+@+++@++++++",
"+++++@+++@+++@+++@++@+++++++",
"+++++@+++++++@+++@+@++++++++",
"++++++@@@++++@+++@@+++++++++",
"+++++++++@+++@+++@@+++++++++",
"+++++++++@+++@+++@+@++++++++",
"#++++@+++@+++@+++@++@$++++++",
"++++++@@@++++@+++@+++@++++++",
"++++++++++++++++++++++++++++",
"+++++++++++++++++++++#++++++",
"++++++++++++++++++++++++++++",
"+++++++++++++++++++++++++++#",
"+++++++++++++#++++++++++++++",
"+++++++++++++++++%++++++++++"};
