/* XPM */
static char * stick_inactive_xpm[] = {
"28 20 7 1",
" 	c None",
".	c #87A68D",
"+	c #081418",
"@	c #081417",
"#	c #081318",
"$	c #80A187",
"%	c #071418",
"............................",
"............................",
"+++++++++++++++++++++++++@++",
"++++++++++++++++++++++++++++",
"@+++++++++++++++++++++++++++",
"#+@+++++++++++++++++++++++++",
"++++++$$$++$$$$$+$+++$++++++",
"+++++$+++$+++$+++$++$+++++++",
"+++++$+++++++$+++$+$++++++++",
"++++++$$$++++$+++$$+++++++++",
"+++++++++$+++$+++$$+++++++++",
"+++++++++$+++$++#$+$++++++++",
"+++++$+++$+++$+++$++$+++++++",
"+%++++$$$++++$+++$+++$++++++",
"++++++++++++++++++++++++++++",
"++++++++++++++++++++++++++++",
"++++++++++++++++++++++++++++",
"++++++++++++++++++++++++++++",
"++++++++++++++++++++++++%+++",
"++++++++++++++++++++++++++++"};
