/* XPM */
static char * shade_toggled_pressed_xpm[] = {
"25 30 22 1",
" 	c None",
".	c #949494",
"+	c #8D8D8D",
"@	c #848484",
"#	c #7D7D7D",
"$	c #747474",
"%	c #6D6D6D",
"&	c #000000",
"*	c #353535",
"=	c #B7B7B7",
"-	c #707070",
";	c #666666",
">	c #555555",
",	c #414141",
"'	c #2E2E2E",
")	c #FFFFFF",
"!	c #102200",
"~	c #1F4100",
"{	c #275200",
"]	c #326A00",
"^	c #3E8300",
"/	c #202020",
".........................",
"+++++++++++++++++++++++++",
"@@@@@@@@@@@@@@@@@@@@@@@@@",
"#########################",
"$$$$$$$$$$$$$$$$$$$$$$$$$",
"%%%%%%%%%%%%%%%%%%%%%%%%%",
"&&&&&&&&&&&&&&&&&&&&&&&&&",
"*=======================*",
"*=---------------------=*",
"*=;;;;;;;;;;;;;;;;;;;;;=*",
"*=>>>>>>>>>>>>>>>>>>>>>=*",
"*=,,,,,,,&,,,,,&,,,,,,,=*",
"*=''''''&)&'''&)&''''''=*",
"*=!!!!!!!&)&!&)&!!!!!!!=*",
"*=~~~~~~~~&)&)&~~~~~~~~=*",
"*={{{{{{{{{&)&{{{{{{{{{=*",
"*=]]]]]]]]]]&]]]]]]]]]]=*",
"*=^^^^^^^^^^^^^^^^^^^^^=*",
"*=======================*",
"/***********************/",
"&&&&&&&&&&&&&&&&&&&&&&&&&",
"&&&&&&&&&&&&&&&&&&&&&&&&&",
"&&&&&&&&&&&&&&&&&&&&&&&&&",
"&&&&&&&&&&&&&&&&&&&&&&&&&",
"&&&&&&&&&&&&&&&&&&&&&&&&&",
"&&&&&&&&&&&&&&&&&&&&&&&&&",
"&&&&&&&&&&&&&&&&&&&&&&&&&",
"&&&&&&&&&&&&&&&&&&&&&&&&&",
"&&&&&&&&&&&&&&&&&&&&&&&&&",
"&&&&&&&&&&&&&&&&&&&&&&&&&"};
