/* XPM */
static char * close_active_xpm[] = {
"30 25 2 1",
" 	c #3B414F",
".	c #E3E3E3",
"                              ",
"                              ",
"                              ",
"                              ",
"                              ",
"         ...........          ",
"         ...........          ",
"         ...........          ",
"         ...........          ",
"         ...........          ",
"         ...........          ",
"         ...........          ",
"         ...........          ",
"         ...........          ",
"                              ",
"                              ",
"                              ",
"                              ",
"                              ",
"                              ",
"                              ",
"                              ",
"                              ",
"                              ",
"                              "};
