/* XPM */
static char * maximize_prelight_xpm[] = {
"24 25 2 1",
" 	c #464D5E",
".	c #FFFFFF",
"                        ",
"                        ",
"                        ",
"                        ",
"                        ",
"                        ",
"        ........        ",
"        ........        ",
"        .      .        ",
"        .      .        ",
"        .      .        ",
"        .      .        ",
"        ........        ",
"                        ",
"                        ",
"                        ",
"                        ",
"                        ",
"                        ",
"                        ",
"                        ",
"                        ",
"                        ",
"                        ",
"                        "};
