/* XPM */
static char * maximize_inactive_xpm[] = {
"24 25 2 1",
" 	c #383D4B",
".	c #8F8F8F",
"                        ",
"                        ",
"                        ",
"                        ",
"                        ",
"                        ",
"        ........        ",
"        ........        ",
"        .      .        ",
"        .      .        ",
"        .      .        ",
"        .      .        ",
"        ........        ",
"                        ",
"                        ",
"                        ",
"                        ",
"                        ",
"                        ",
"                        ",
"                        ",
"                        ",
"                        ",
"                        ",
"                        "};
