/* XPM */
static char * top_left_inactive_xpm[] = {
"5 25 2 1",
"   c None",
".  c #383D4B",
".....",
".....",
".....",
".....",
".....",
".....",
".....",
".....",
".....",
".....",
".....",
".....",
".....",
".....",
".....",
".....",
".....",
".....",
".....",
".....",
".....",
".....",
".....",
".....",
"....."};
