/* XPM */
static char * top_right_active_xpm[] = {
"21 21 7 1",
" 	c None",
".	c #000000",
"+	c #6ABC00",
"@	c #68B700",
"#	c #63AF00",
"$	c #5A9F00",
"%	c #67B600",
"                     ",
"                     ",
"                     ",
"...................  ",
"++++++++++++++++++@. ",
"+++++++++++++++++++#.",
".+.+.+.+.+.+.+.+.++$.",
"@+@+@+@+@+@+@+@+@+@$.",
".@.@.@.@.@.@.@.@.@@$.",
"@+@+@+@+@+@+@+@+@+@$.",
".@.@.@.@.@.@.@.@.@@$.",
"@+@+@+@+@+@+@+@+@+@$.",
".@.@.@.@.@.@.@.@.@@$.",
"@+@+@+@+@+@+@+@+@+@$.",
".%.%.%.%.%.%.%.%.%%$.",
"%+%+%+%+%+%+%+%+%+%$.",
".#.#.#.#.#.#.#.#.##$.",
"#+#+#+#+#+#+#+#+#+#$.",
"###################$.",
"$$$$$$$$$$$$$$$$$$#$.",
".................$@$."};
