{
  "shebang": {
    "prefix": "shell",
    "body": "#!/bin/bash",
    "description": "Bash shebang"
  },
  "forloop": {
    "prefix": "forloop",
    "body": "for ${1:var} in ${2:items}; do\n  ${3:echo $var}\ndone",
    "description": "Bash for loop"
  },
  "if": {
    "prefix": "if",
    "body": "if [[ ${1:condition} ]]; then\n  ${2:# commands}\nfi",
    "description": "Bash if statement"
  }
}
