/* XPM */
static char * close_pressed_xpm[] = {
"25 25 156 2",
"  	c None",
". 	c #394039",
"+ 	c #4A3C4A",
"@ 	c #414041",
"# 	c #393C4A",
"$ 	c #4A3C39",
"% 	c #413C41",
"& 	c #524052",
"* 	c #413841",
"= 	c #413C4A",
"- 	c #393C41",
"; 	c #313839",
"> 	c #39445A",
", 	c #394462",
"' 	c #314862",
") 	c #394862",
"! 	c #314462",
"~ 	c #294452",
"{ 	c #414462",
"] 	c #313C41",
"^ 	c #4A384A",
"/ 	c #393439",
"( 	c #313431",
"_ 	c #393841",
": 	c #010E0F",
"< 	c #020D0E",
"[ 	c #010B0B",
"} 	c #000909",
"| 	c #000808",
"1 	c #000708",
"2 	c #000707",
"3 	c #020C0E",
"4 	c #010D0F",
"5 	c #293839",
"6 	c #312C31",
"7 	c #393039",
"8 	c #393852",
"9 	c #6AB9CF",
"0 	c #6FBDD2",
"a 	c #72BFD5",
"b 	c #75C2D7",
"c 	c #74C6DA",
"d 	c #74C6E1",
"e 	c #78CBE3",
"f 	c #7CCFE5",
"g 	c #80CFE7",
"h 	c #7ED1E6",
"i 	c #7BCCE3",
"j 	c #78C9E0",
"k 	c #7BC8DC",
"l 	c #79C5D9",
"m 	c #71BFD4",
"n 	c #413C5A",
"o 	c #292C31",
"p 	c #293C52",
"q 	c #73BBCF",
"r 	c #000000",
"s 	c #000206",
"t 	c #000C1D",
"u 	c #011938",
"v 	c #00234A",
"w 	c #001E43",
"x 	c #011C3C",
"y 	c #79C0D4",
"z 	c #20384A",
"A 	c #292829",
"B 	c #312831",
"C 	c #202C29",
"D 	c #29385A",
"E 	c #000809",
"F 	c #7BBCCE",
"G 	c #000202",
"H 	c #012E5D",
"I 	c #034FA0",
"J 	c #055FB8",
"K 	c #0558AE",
"L 	c #0351A2",
"M 	c #81C1D3",
"N 	c #293C5A",
"O 	c #292C29",
"P 	c #202429",
"Q 	c #203852",
"R 	c #82BDCD",
"S 	c #00020A",
"T 	c #011B38",
"U 	c #0450A0",
"V 	c #33AAFD",
"W 	c #33A0FD",
"X 	c #88C2D2",
"Y 	c #18344A",
"Z 	c #202420",
"` 	c #202020",
" .	c #313031",
"..	c #313039",
"+.	c #313C5A",
"@.	c #83B7C6",
"#.	c #00050A",
"$.	c #00244A",
"%.	c #0761B8",
"&.	c #43ACFD",
"*.	c #8FC2D0",
"=.	c #393C62",
"-.	c #000408",
";.	c #001829",
">.	c #7DAAB8",
",.	c #002043",
"'.	c #085CAE",
").	c #89B7C4",
"!.	c #081831",
"~.	c #7298A2",
"{.	c #011E3C",
"].	c #0555A2",
"^.	c #8AB0BC",
"/.	c #68828B",
"(.	c #00060A",
"_.	c #095EAE",
":.	c #7E9DA6",
"<.	c #081839",
"[.	c #586970",
"}.	c #00264A",
"|.	c #0A67B8",
"1.	c #6D858B",
"2.	c #001429",
"3.	c #444E52",
"4.	c #021E38",
"5.	c #0857A0",
"6.	c #5C676A",
"7.	c #010A0B",
"8.	c #2D2E33",
"9.	c #000D1D",
"0.	c #04345D",
"a.	c #0958A0",
"b.	c #0C69B8",
"c.	c #0C61AE",
"d.	c #075AA2",
"e.	c #0C62AE",
"f.	c #03345D",
"g.	c #404748",
"h.	c #000008",
"i.	c #001018",
"j.	c #0F1010",
"k.	c #000E1D",
"l.	c #021D38",
"m.	c #00284A",
"n.	c #002243",
"o.	c #02203C",
"p.	c #1F2021",
"q.	c #000A0B",
"r.	c #000D0E",
"s.	c #020E0F",
"t.	c #020D0F",
"u.	c #020D10",
"v.	c #020E10",
"w.	c #000103",
"x.	c #00090A",
"y.	c #000B0B",
". + @ + . + @ + . # @ + . $ @ + . $ @ + . + @ % & ",
"* % * % @ = - = - = - = - = - = - = - = * % * % * ",
"* * ; # > , ' , ) , ' , ) , ' , ) , ! ~ { ] * * ^ ",
"/ ( _ : < [ } | 1 2 2 2 2 2 2 2 2 | } [ 3 4 5 / / ",
"6 7 8 3 9 0 a b c d e f g h i j k l b b m 3 n 7 / ",
"6 o p [ q r r s t u v w x w v u t s r r y [ z A A ",
"B C D E F r G t H I J K L K J I H t G r M } N O 6 ",
"A P Q | R r S T U V W V r V W V U T S r X | Y Z ` ",
" ...+.2 @.r #.$.%.W &.W r W &.W %.$.#.r *.2 =.6 7 ",
"r -.;.2 >.r #.,.'.V W V r V W V '.,.#.r ).2 ;.r r ",
"r -.!.2 ~.r S {.].r r r &.r r r ].{.S r ^.2 !.r r ",
"r -.;.2 /.r (.,._.V W V r V W V _.,.(.r :.2 ;.r r ",
"r -.<.| [.r (.}.|.W &.W r W &.W |.}.(.r 1.| <.r r ",
"r -.2.E 3.r S 4.5.V W V r V W V 5.4.S r 6.} ;.r r ",
"r -.!.7.8.r G 9.0.a.b.c.d.e.b.a.f.9.G r g.7.!.r r ",
"r h.i.3 j.r r s k.l.m.n.o.n.m.l.k.s r r p.3 i.r r ",
"r r r : < [ } | 1 2 2 2 2 2 2 2 2 | } [ 3 4 -.r r ",
"r r r q.r.s.t.u.v.v.v.v.v.v.v.v.v.u.t.s.r.q.r r r ",
"r r r w.2 x.y.q.q.q.q.q.q.q.q.q.q.q.y.x.2 w.r r r ",
"r r r r r r r r r r r r r r r r r r r r r r r r r ",
"r r r r r r r r r r r r r r r r r r r r r r r r r ",
"r r r r r r r r r r r r r r r r r r r r r r r r r ",
"r r r r r r r r r r r r r r r r r r r r r r r r r ",
"r r r r r r r r r r r r r r r r r r r r r r r r r ",
"r r r r r r r r r r r r r r r r r r r r r r r r r "};
