/* XPM */
static char * maximize_pressed_xpm[] = {
"25 25 174 2",
"  	c None",
". 	c #394039",
"+ 	c #4A444A",
"@ 	c #414041",
"# 	c #4A3C4A",
"$ 	c #393C39",
"% 	c #524052",
"& 	c #414052",
"* 	c #524041",
"= 	c #413841",
"- 	c #413C41",
"; 	c #413C4A",
"> 	c #393C41",
", 	c #41404A",
"' 	c #313C41",
") 	c #414462",
"! 	c #294452",
"~ 	c #314462",
"{ 	c #394462",
"] 	c #394862",
"^ 	c #29445A",
"/ 	c #39486A",
"( 	c #41486A",
"_ 	c #313831",
": 	c #4A384A",
"< 	c #393439",
"[ 	c #313431",
"} 	c #393841",
"| 	c #010E0F",
"1 	c #020D0E",
"2 	c #010B0B",
"3 	c #000909",
"4 	c #000808",
"5 	c #000708",
"6 	c #000707",
"7 	c #020C0E",
"8 	c #010D0F",
"9 	c #293839",
"0 	c #312C31",
"a 	c #393039",
"b 	c #413C5A",
"c 	c #71BFD5",
"d 	c #73C1D6",
"e 	c #75C3D8",
"f 	c #72C4D9",
"g 	c #6FC1DC",
"h 	c #6AC3DE",
"i 	c #6AC2E0",
"j 	c #6AC4E1",
"k 	c #6AC3E1",
"l 	c #6DC4DF",
"m 	c #73C4DF",
"n 	c #78C8DC",
"o 	c #7CC7DC",
"p 	c #7AC6DB",
"q 	c #78C4D9",
"r 	c #77C4D9",
"s 	c #293031",
"t 	c #292829",
"u 	c #20384A",
"v 	c #78C0D4",
"w 	c #000000",
"x 	c #000206",
"y 	c #000C1D",
"z 	c #011C3C",
"A 	c #00244F",
"B 	c #002755",
"C 	c #7EC5D8",
"D 	c #313039",
"E 	c #312831",
"F 	c #292C29",
"G 	c #293C5A",
"H 	c #000809",
"I 	c #7FC1D3",
"J 	c #000202",
"K 	c #012E5D",
"L 	c #0350A2",
"M 	c #0567C2",
"N 	c #056CCB",
"O 	c #056FCC",
"P 	c #0351A2",
"Q 	c #83C5D6",
"R 	c #202829",
"S 	c #292429",
"T 	c #18344A",
"U 	c #86C1D1",
"V 	c #00020A",
"W 	c #011A38",
"X 	c #0450A0",
"Y 	c #31B4FF",
"Z 	c #31AAFF",
"` 	c #0353A2",
" .	c #011D3C",
"..	c #8AC4D5",
"+.	c #292C31",
"@.	c #202020",
"#.	c #313031",
"$.	c #393C62",
"%.	c #86BBCA",
"&.	c #00050A",
"*.	c #00244A",
"=.	c #0661B8",
"-.	c #42B5FE",
";.	c #31B9FF",
">.	c #076AC2",
",.	c #00264F",
"'.	c #00050E",
").	c #91C5D4",
"!.	c #001829",
"~.	c #80AFBD",
"{.	c #001F43",
"].	c #075CAE",
"^.	c #0773CB",
"/.	c #002A55",
"(.	c #8AB9C7",
"_.	c #000408",
":.	c #081831",
"<.	c #769EA9",
"[.	c #011E3C",
"}.	c #0555A2",
"|.	c #0974CC",
"1.	c #8CB4C0",
"2.	c #6B8892",
"3.	c #00060A",
"4.	c #002043",
"5.	c #095EAE",
"6.	c #0974C9",
"7.	c #002B55",
"8.	c #00060E",
"9.	c #81A2AB",
"0.	c #081839",
"a.	c #5C7077",
"b.	c #00264A",
"c.	c #0966B6",
"d.	c #0B6FC1",
"e.	c #00284F",
"f.	c #708B92",
"g.	c #001429",
"h.	c #485259",
"i.	c #021E38",
"j.	c #0857A0",
"k.	c #065AA2",
"l.	c #021F3C",
"m.	c #5E6C70",
"n.	c #010A0B",
"o.	c #313438",
"p.	c #000D1D",
"q.	c #03345D",
"r.	c #0858A0",
"s.	c #0C69B8",
"t.	c #0C61AE",
"u.	c #075AA2",
"v.	c #0958A0",
"w.	c #03335D",
"x.	c #434B4D",
"y.	c #001018",
"z.	c #101112",
"A.	c #000E1D",
"B.	c #021D38",
"C.	c #00284A",
"D.	c #002243",
"E.	c #02203C",
"F.	c #222425",
"G.	c #000008",
"H.	c #080810",
"I.	c #000A0B",
"J.	c #000D0E",
"K.	c #020E0F",
"L.	c #020D0F",
"M.	c #020D10",
"N.	c #020E10",
"O.	c #000103",
"P.	c #00090A",
"Q.	c #000B0B",
". + @ # . # @ # . $ % $ % $ & $ % $ * $ % $ * $ % ",
"= - = - = ; > ; > , > ; > ; > ; > ; > ; = - = - = ",
"= = = ' ) ! ~ { ] ^ / ^ ( ^ / ^ ( ^ / ! ) ' = _ : ",
"< [ } | 1 2 3 4 5 6 6 6 6 6 6 6 6 4 3 2 7 8 9 < < ",
"0 a b 7 c d d e f g h i j k l m n o p q r 7 b s < ",
"0 t u 2 v w w x y z A B B B A z y x w w C 2 u D t ",
"E F G H I w J y K L M N O N M P K y J w Q 3 G R 0 ",
"t S T 4 U w V W X Y Z Y Z Y Z Y `  .V w ..4 T +.@.",
"#.0 $.6 %.w &.*.=.Z -.Z ;.Z -.Z >.,.'.w ).6 $.s a ",
"w w !.6 ~.w &.{.].Y Z Y Z Y Z Y ^./.'.w (.6 !._.w ",
"w w :.6 <.w V [.}.w w w w Z ;.Z |./.'.w 1.6 :._.w ",
"w w !.6 2.w 3.4.5.Y Z Y w Y Z Y 6.7.8.w 9.6 !._.w ",
"w w 0.4 a.w 3.b.c.Z -.Z w Z -.Z d.e.8.w f.4 0._.w ",
"w w g.H h.w V i.j.Y Z Y w Y Z Y k.l.V w m.3 !._.w ",
"w w :.n.o.w J p.q.r.s.t.u.t.s.v.w.p.J w x.n.:._.w ",
"w w y.7 z.w w x A.B.C.D.E.D.C.B.A.x w w F.7 y.G.w ",
"w w w | 1 2 3 4 5 6 6 6 6 6 6 6 6 4 3 2 7 8 H.w w ",
"w w w I.J.K.L.M.N.N.N.N.N.N.N.N.N.M.L.K.J.I.w w w ",
"w w w O.6 P.Q.I.I.I.I.I.I.I.I.I.I.I.Q.P.6 O.w w w ",
"w w w w w w w w w w w w w w w w w w w w w w w w w ",
"w w w w w w w w w w w w w w w w w w w w w w w w w ",
"w w w w w w w w w w w w w w w w w w w w w w w w w ",
"w w w w w w w w w w w w w w w w w w w w w w w w w ",
"w w w w w w w w w w w w w w w w w w w w w w w w w ",
"w w w w w w w w w w w w w w w w w w w w w w w w w "};
